-7.6,-7.5,-2.5,-8.0,0.0,0.0
-7.6,-7.5,-2.5,-8.0,0.0,0.0
-3.5999999999999996,-7.5,-2.5,-8.0,0.0,0.0
0.40000000000000036,-7.5,-2.5,-8.0,0.0,0.0
-7.6,-5.5,-2.5,-8.0,0.0,0.0
-3.5999999999999996,-5.5,-2.5,-8.0,0.0,0.0
0.40000000000000036,-5.5,-2.5,-8.0,0.0,0.0
-7.6,-3.5,-2.5,-8.0,0.0,0.0
-3.5999999999999996,-3.5,-2.5,-8.0,0.0,0.0
0.40000000000000036,-3.5,-2.5,-8.0,0.0,0.0
-7.6,-1.5,-2.5,-8.0,0.0,0.0
-3.5999999999999996,-1.5,-2.5,-8.0,0.0,0.0
0.40000000000000036,-1.5,-2.5,-8.0,0.0,0.0
-7.6,0.5,-2.5,-8.0,0.0,0.0
-3.5999999999999996,0.5,-2.5,-8.0,0.0,0.0
0.40000000000000036,0.5,-2.5,-8.0,0.0,0.0
-7.6,2.5,-2.5,-8.0,0.0,0.0
-3.5999999999999996,2.5,-2.5,-8.0,0.0,0.0
0.40000000000000036,2.5,-2.5,-8.0,0.0,0.0
-7.6,4.5,-2.5,-8.0,0.0,0.0
-3.5999999999999996,4.5,-2.5,-8.0,0.0,0.0
0.40000000000000036,4.5,-2.5,-8.0,0.0,0.0
-7.6,-7.5,-2.5,-6.0,0.0,0.0
-3.5999999999999996,-7.5,-2.5,-6.0,0.0,0.0
0.40000000000000036,-7.5,-2.5,-6.0,0.0,0.0
-7.6,-5.5,-2.5,-6.0,0.0,0.0
-3.5999999999999996,-5.5,-2.5,-6.0,0.0,0.0
0.40000000000000036,-5.5,-2.5,-6.0,0.0,0.0
-7.6,-3.5,-2.5,-6.0,0.0,0.0
-3.5999999999999996,-3.5,-2.5,-6.0,0.0,0.0
0.40000000000000036,-3.5,-2.5,-6.0,0.0,0.0
-7.6,-1.5,-2.5,-6.0,0.0,0.0
-3.5999999999999996,-1.5,-2.5,-6.0,0.0,0.0
0.40000000000000036,-1.5,-2.5,-6.0,0.0,0.0
-7.6,0.5,-2.5,-6.0,0.0,0.0
-3.5999999999999996,0.5,-2.5,-6.0,0.0,0.0
0.40000000000000036,0.5,-2.5,-6.0,0.0,0.0
-7.6,2.5,-2.5,-6.0,0.0,0.0
-3.5999999999999996,2.5,-2.5,-6.0,0.0,0.0
0.40000000000000036,2.5,-2.5,-6.0,0.0,0.0
-7.6,4.5,-2.5,-6.0,0.0,0.0
-3.5999999999999996,4.5,-2.5,-6.0,0.0,0.0
0.40000000000000036,4.5,-2.5,-6.0,0.0,0.0
-7.6,-7.5,-2.5,-4.0,0.0,0.0
-3.5999999999999996,-7.5,-2.5,-4.0,0.0,0.0
0.40000000000000036,-7.5,-2.5,-4.0,0.0,0.0
-7.6,-5.5,-2.5,-4.0,0.0,0.0
-3.5999999999999996,-5.5,-2.5,-4.0,0.0,0.0
0.40000000000000036,-5.5,-2.5,-4.0,0.0,0.0
-7.6,-3.5,-2.5,-4.0,0.0,0.0
-3.5999999999999996,-3.5,-2.5,-4.0,0.0,0.0
0.40000000000000036,-3.5,-2.5,-4.0,0.0,0.0
-7.6,-1.5,-2.5,-4.0,0.0,0.0
-3.5999999999999996,-1.5,-2.5,-4.0,0.0,0.0
0.40000000000000036,-1.5,-2.5,-4.0,0.0,0.0
-7.6,0.5,-2.5,-4.0,0.0,0.0
-3.5999999999999996,0.5,-2.5,-4.0,0.0,0.0
0.40000000000000036,0.5,-2.5,-4.0,0.0,0.0
-7.6,2.5,-2.5,-4.0,0.0,0.0
-3.5999999999999996,2.5,-2.5,-4.0,0.0,0.0
0.40000000000000036,2.5,-2.5,-4.0,0.0,0.0
-7.6,4.5,-2.5,-4.0,0.0,0.0
-3.5999999999999996,4.5,-2.5,-4.0,0.0,0.0
0.40000000000000036,4.5,-2.5,-4.0,0.0,0.0
-7.6,-7.5,-2.5,-2.0,0.0,0.0
-3.5999999999999996,-7.5,-2.5,-2.0,0.0,0.0
0.40000000000000036,-7.5,-2.5,-2.0,0.0,0.0
-7.6,-5.5,-2.5,-2.0,0.0,0.0
-3.5999999999999996,-5.5,-2.5,-2.0,0.0,0.0
0.40000000000000036,-5.5,-2.5,-2.0,0.0,0.0
-7.6,-3.5,-2.5,-2.0,0.0,0.0
-3.5999999999999996,-3.5,-2.5,-2.0,0.0,0.0
0.40000000000000036,-3.5,-2.5,-2.0,0.0,0.0
-7.6,-1.5,-2.5,-2.0,0.0,0.0
-3.5999999999999996,-1.5,-2.5,-2.0,0.0,0.0
0.40000000000000036,-1.5,-2.5,-2.0,0.0,0.0
-7.6,0.5,-2.5,-2.0,0.0,0.0
-3.5999999999999996,0.5,-2.5,-2.0,0.0,0.0
0.40000000000000036,0.5,-2.5,-2.0,0.0,0.0
-7.6,2.5,-2.5,-2.0,0.0,0.0
-3.5999999999999996,2.5,-2.5,-2.0,0.0,0.0
0.40000000000000036,2.5,-2.5,-2.0,0.0,0.0
-7.6,4.5,-2.5,-2.0,0.0,0.0
-3.5999999999999996,4.5,-2.5,-2.0,0.0,0.0
0.40000000000000036,4.5,-2.5,-2.0,0.0,0.0
-7.6,-7.5,-2.5,0.0,0.0,0.0
-3.5999999999999996,-7.5,-2.5,0.0,0.0,0.0
0.40000000000000036,-7.5,-2.5,0.0,0.0,0.0
-7.6,-5.5,-2.5,0.0,0.0,0.0
-3.5999999999999996,-5.5,-2.5,0.0,0.0,0.0
0.40000000000000036,-5.5,-2.5,0.0,0.0,0.0
-7.6,-3.5,-2.5,0.0,0.0,0.0
-3.5999999999999996,-3.5,-2.5,0.0,0.0,0.0
0.40000000000000036,-3.5,-2.5,0.0,0.0,0.0
-7.6,-1.5,-2.5,0.0,0.0,0.0
-3.5999999999999996,-1.5,-2.5,0.0,0.0,0.0
0.40000000000000036,-1.5,-2.5,0.0,0.0,0.0
-7.6,0.5,-2.5,0.0,0.0,0.0
-3.5999999999999996,0.5,-2.5,0.0,0.0,0.0
0.40000000000000036,0.5,-2.5,0.0,0.0,0.0
-7.6,2.5,-2.5,0.0,0.0,0.0
-3.5999999999999996,2.5,-2.5,0.0,0.0,0.0
0.40000000000000036,2.5,-2.5,0.0,0.0,0.0
-7.6,4.5,-2.5,0.0,0.0,0.0
-3.5999999999999996,4.5,-2.5,0.0,0.0,0.0
0.40000000000000036,4.5,-2.5,0.0,0.0,0.0
-7.6,-7.5,-2.5,2.0,0.0,0.0
-3.5999999999999996,-7.5,-2.5,2.0,0.0,0.0
0.40000000000000036,-7.5,-2.5,2.0,0.0,0.0
-7.6,-5.5,-2.5,2.0,0.0,0.0
-3.5999999999999996,-5.5,-2.5,2.0,0.0,0.0
0.40000000000000036,-5.5,-2.5,2.0,0.0,0.0
-7.6,-3.5,-2.5,2.0,0.0,0.0
-3.5999999999999996,-3.5,-2.5,2.0,0.0,0.0
0.40000000000000036,-3.5,-2.5,2.0,0.0,0.0
-7.6,-1.5,-2.5,2.0,0.0,0.0
-3.5999999999999996,-1.5,-2.5,2.0,0.0,0.0
0.40000000000000036,-1.5,-2.5,2.0,0.0,0.0
-7.6,0.5,-2.5,2.0,0.0,0.0
-3.5999999999999996,0.5,-2.5,2.0,0.0,0.0
0.40000000000000036,0.5,-2.5,2.0,0.0,0.0
-7.6,2.5,-2.5,2.0,0.0,0.0
-3.5999999999999996,2.5,-2.5,2.0,0.0,0.0
0.40000000000000036,2.5,-2.5,2.0,0.0,0.0
-7.6,4.5,-2.5,2.0,0.0,0.0
-3.5999999999999996,4.5,-2.5,2.0,0.0,0.0
0.40000000000000036,4.5,-2.5,2.0,0.0,0.0
-7.6,-7.5,-2.5,4.0,0.0,0.0
-3.5999999999999996,-7.5,-2.5,4.0,0.0,0.0
0.40000000000000036,-7.5,-2.5,4.0,0.0,0.0
-7.6,-5.5,-2.5,4.0,0.0,0.0
-3.5999999999999996,-5.5,-2.5,4.0,0.0,0.0
0.40000000000000036,-5.5,-2.5,4.0,0.0,0.0
-7.6,-3.5,-2.5,4.0,0.0,0.0
-3.5999999999999996,-3.5,-2.5,4.0,0.0,0.0
0.40000000000000036,-3.5,-2.5,4.0,0.0,0.0
-7.6,-1.5,-2.5,4.0,0.0,0.0
-3.5999999999999996,-1.5,-2.5,4.0,0.0,0.0
0.40000000000000036,-1.5,-2.5,4.0,0.0,0.0
-7.6,0.5,-2.5,4.0,0.0,0.0
-3.5999999999999996,0.5,-2.5,4.0,0.0,0.0
0.40000000000000036,0.5,-2.5,4.0,0.0,0.0
-7.6,2.5,-2.5,4.0,0.0,0.0
-3.5999999999999996,2.5,-2.5,4.0,0.0,0.0
0.40000000000000036,2.5,-2.5,4.0,0.0,0.0
-7.6,4.5,-2.5,4.0,0.0,0.0
-3.5999999999999996,4.5,-2.5,4.0,0.0,0.0
0.40000000000000036,4.5,-2.5,4.0,0.0,0.0
-7.6,-7.5,1.5,-8.0,0.0,0.0
-3.5999999999999996,-7.5,1.5,-8.0,0.0,0.0
0.40000000000000036,-7.5,1.5,-8.0,0.0,0.0
-7.6,-5.5,1.5,-8.0,0.0,0.0
-3.5999999999999996,-5.5,1.5,-8.0,0.0,0.0
0.40000000000000036,-5.5,1.5,-8.0,0.0,0.0
-7.6,-3.5,1.5,-8.0,0.0,0.0
-3.5999999999999996,-3.5,1.5,-8.0,0.0,0.0
0.40000000000000036,-3.5,1.5,-8.0,0.0,0.0
-7.6,-1.5,1.5,-8.0,0.0,0.0
-3.5999999999999996,-1.5,1.5,-8.0,0.0,0.0
0.40000000000000036,-1.5,1.5,-8.0,0.0,0.0
-7.6,0.5,1.5,-8.0,0.0,0.0
-3.5999999999999996,0.5,1.5,-8.0,0.0,0.0
0.40000000000000036,0.5,1.5,-8.0,0.0,0.0
-7.6,2.5,1.5,-8.0,0.0,0.0
-3.5999999999999996,2.5,1.5,-8.0,0.0,0.0
0.40000000000000036,2.5,1.5,-8.0,0.0,0.0
-7.6,4.5,1.5,-8.0,0.0,0.0
-3.5999999999999996,4.5,1.5,-8.0,0.0,0.0
0.40000000000000036,4.5,1.5,-8.0,0.0,0.0
-7.6,-7.5,1.5,-6.0,0.0,0.0
-3.5999999999999996,-7.5,1.5,-6.0,0.0,0.0
0.40000000000000036,-7.5,1.5,-6.0,0.0,0.0
-7.6,-5.5,1.5,-6.0,0.0,0.0
-3.5999999999999996,-5.5,1.5,-6.0,0.0,0.0
0.40000000000000036,-5.5,1.5,-6.0,0.0,0.0
-7.6,-3.5,1.5,-6.0,0.0,0.0
-3.5999999999999996,-3.5,1.5,-6.0,0.0,0.0
0.40000000000000036,-3.5,1.5,-6.0,0.0,0.0
-7.6,-1.5,1.5,-6.0,0.0,0.0
-3.5999999999999996,-1.5,1.5,-6.0,0.0,0.0
0.40000000000000036,-1.5,1.5,-6.0,0.0,0.0
-7.6,0.5,1.5,-6.0,0.0,0.0
-3.5999999999999996,0.5,1.5,-6.0,0.0,0.0
0.40000000000000036,0.5,1.5,-6.0,0.0,0.0
-7.6,2.5,1.5,-6.0,0.0,0.0
-3.5999999999999996,2.5,1.5,-6.0,0.0,0.0
0.40000000000000036,2.5,1.5,-6.0,0.0,0.0
-7.6,4.5,1.5,-6.0,0.0,0.0
-3.5999999999999996,4.5,1.5,-6.0,0.0,0.0
0.40000000000000036,4.5,1.5,-6.0,0.0,0.0
-7.6,-7.5,1.5,-4.0,0.0,0.0
-3.5999999999999996,-7.5,1.5,-4.0,0.0,0.0
0.40000000000000036,-7.5,1.5,-4.0,0.0,0.0
-7.6,-5.5,1.5,-4.0,0.0,0.0
-3.5999999999999996,-5.5,1.5,-4.0,0.0,0.0
0.40000000000000036,-5.5,1.5,-4.0,0.0,0.0
-7.6,-3.5,1.5,-4.0,0.0,0.0
-3.5999999999999996,-3.5,1.5,-4.0,0.0,0.0
0.40000000000000036,-3.5,1.5,-4.0,0.0,0.0
-7.6,-1.5,1.5,-4.0,0.0,0.0
-3.5999999999999996,-1.5,1.5,-4.0,0.0,0.0
0.40000000000000036,-1.5,1.5,-4.0,0.0,0.0
-7.6,0.5,1.5,-4.0,0.0,0.0
-3.5999999999999996,0.5,1.5,-4.0,0.0,0.0
0.40000000000000036,0.5,1.5,-4.0,0.0,0.0
-7.6,2.5,1.5,-4.0,0.0,0.0
-3.5999999999999996,2.5,1.5,-4.0,0.0,0.0
0.40000000000000036,2.5,1.5,-4.0,0.0,0.0
-7.6,4.5,1.5,-4.0,0.0,0.0
-3.5999999999999996,4.5,1.5,-4.0,0.0,0.0
0.40000000000000036,4.5,1.5,-4.0,0.0,0.0
-7.6,-7.5,1.5,-2.0,0.0,0.0
-3.5999999999999996,-7.5,1.5,-2.0,0.0,0.0
0.40000000000000036,-7.5,1.5,-2.0,0.0,0.0
-7.6,-5.5,1.5,-2.0,0.0,0.0
-3.5999999999999996,-5.5,1.5,-2.0,0.0,0.0
0.40000000000000036,-5.5,1.5,-2.0,0.0,0.0
-7.6,-3.5,1.5,-2.0,0.0,0.0
-3.5999999999999996,-3.5,1.5,-2.0,0.0,0.0
0.40000000000000036,-3.5,1.5,-2.0,0.0,0.0
-7.6,-1.5,1.5,-2.0,0.0,0.0
-3.5999999999999996,-1.5,1.5,-2.0,0.0,0.0
0.40000000000000036,-1.5,1.5,-2.0,0.0,0.0
-7.6,0.5,1.5,-2.0,0.0,0.0
-3.5999999999999996,0.5,1.5,-2.0,0.0,0.0
0.40000000000000036,0.5,1.5,-2.0,0.0,0.0
-7.6,2.5,1.5,-2.0,0.0,0.0
-3.5999999999999996,2.5,1.5,-2.0,0.0,0.0
0.40000000000000036,2.5,1.5,-2.0,0.0,0.0
-7.6,4.5,1.5,-2.0,0.0,0.0
-3.5999999999999996,4.5,1.5,-2.0,0.0,0.0
0.40000000000000036,4.5,1.5,-2.0,0.0,0.0
-7.6,-7.5,1.5,0.0,0.0,0.0
-3.5999999999999996,-7.5,1.5,0.0,0.0,0.0
0.40000000000000036,-7.5,1.5,0.0,0.0,0.0
-7.6,-5.5,1.5,0.0,0.0,0.0
-3.5999999999999996,-5.5,1.5,0.0,0.0,0.0
0.40000000000000036,-5.5,1.5,0.0,0.0,0.0
-7.6,-3.5,1.5,0.0,0.0,0.0
-3.5999999999999996,-3.5,1.5,0.0,0.0,0.0
0.40000000000000036,-3.5,1.5,0.0,0.0,0.0
-7.6,-1.5,1.5,0.0,0.0,0.0
-3.5999999999999996,-1.5,1.5,0.0,0.0,0.0
0.40000000000000036,-1.5,1.5,0.0,0.0,0.0
-7.6,0.5,1.5,0.0,0.0,0.0
-3.5999999999999996,0.5,1.5,0.0,0.0,0.0
0.40000000000000036,0.5,1.5,0.0,0.0,0.0
-7.6,2.5,1.5,0.0,0.0,0.0
-3.5999999999999996,2.5,1.5,0.0,0.0,0.0
0.40000000000000036,2.5,1.5,0.0,0.0,0.0
-7.6,4.5,1.5,0.0,0.0,0.0
-3.5999999999999996,4.5,1.5,0.0,0.0,0.0
0.40000000000000036,4.5,1.5,0.0,0.0,0.0
-7.6,-7.5,1.5,2.0,0.0,0.0
-3.5999999999999996,-7.5,1.5,2.0,0.0,0.0
0.40000000000000036,-7.5,1.5,2.0,0.0,0.0
-7.6,-5.5,1.5,2.0,0.0,0.0
-3.5999999999999996,-5.5,1.5,2.0,0.0,0.0
0.40000000000000036,-5.5,1.5,2.0,0.0,0.0
-7.6,-3.5,1.5,2.0,0.0,0.0
-3.5999999999999996,-3.5,1.5,2.0,0.0,0.0
0.40000000000000036,-3.5,1.5,2.0,0.0,0.0
-7.6,-1.5,1.5,2.0,0.0,0.0
-3.5999999999999996,-1.5,1.5,2.0,0.0,0.0
0.40000000000000036,-1.5,1.5,2.0,0.0,0.0
-7.6,0.5,1.5,2.0,0.0,0.0
-3.5999999999999996,0.5,1.5,2.0,0.0,0.0
0.40000000000000036,0.5,1.5,2.0,0.0,0.0
-7.6,2.5,1.5,2.0,0.0,0.0
-3.5999999999999996,2.5,1.5,2.0,0.0,0.0
0.40000000000000036,2.5,1.5,2.0,0.0,0.0
-7.6,4.5,1.5,2.0,0.0,0.0
-3.5999999999999996,4.5,1.5,2.0,0.0,0.0
0.40000000000000036,4.5,1.5,2.0,0.0,0.0
-7.6,-7.5,1.5,4.0,0.0,0.0
-3.5999999999999996,-7.5,1.5,4.0,0.0,0.0
0.40000000000000036,-7.5,1.5,4.0,0.0,0.0
-7.6,-5.5,1.5,4.0,0.0,0.0
-3.5999999999999996,-5.5,1.5,4.0,0.0,0.0
0.40000000000000036,-5.5,1.5,4.0,0.0,0.0
-7.6,-3.5,1.5,4.0,0.0,0.0
-3.5999999999999996,-3.5,1.5,4.0,0.0,0.0
0.40000000000000036,-3.5,1.5,4.0,0.0,0.0
-7.6,-1.5,1.5,4.0,0.0,0.0
-3.5999999999999996,-1.5,1.5,4.0,0.0,0.0
0.40000000000000036,-1.5,1.5,4.0,0.0,0.0
-7.6,0.5,1.5,4.0,0.0,0.0
-3.5999999999999996,0.5,1.5,4.0,0.0,0.0
0.40000000000000036,0.5,1.5,4.0,0.0,0.0
-7.6,2.5,1.5,4.0,0.0,0.0
-3.5999999999999996,2.5,1.5,4.0,0.0,0.0
0.40000000000000036,2.5,1.5,4.0,0.0,0.0
-7.6,4.5,1.5,4.0,0.0,0.0
-3.5999999999999996,4.5,1.5,4.0,0.0,0.0
0.40000000000000036,4.5,1.5,4.0,0.0,0.0
-7.6,-7.5,5.5,-8.0,0.0,0.0
-3.5999999999999996,-7.5,5.5,-8.0,0.0,0.0
0.40000000000000036,-7.5,5.5,-8.0,0.0,0.0
-7.6,-5.5,5.5,-8.0,0.0,0.0
-3.5999999999999996,-5.5,5.5,-8.0,0.0,0.0
0.40000000000000036,-5.5,5.5,-8.0,0.0,0.0
-7.6,-3.5,5.5,-8.0,0.0,0.0
-3.5999999999999996,-3.5,5.5,-8.0,0.0,0.0
0.40000000000000036,-3.5,5.5,-8.0,0.0,0.0
-7.6,-1.5,5.5,-8.0,0.0,0.0
-3.5999999999999996,-1.5,5.5,-8.0,0.0,0.0
0.40000000000000036,-1.5,5.5,-8.0,0.0,0.0
-7.6,0.5,5.5,-8.0,0.0,0.0
-3.5999999999999996,0.5,5.5,-8.0,0.0,0.0
0.40000000000000036,0.5,5.5,-8.0,0.0,0.0
-7.6,2.5,5.5,-8.0,0.0,0.0
-3.5999999999999996,2.5,5.5,-8.0,0.0,0.0
0.40000000000000036,2.5,5.5,-8.0,0.0,0.0
-7.6,4.5,5.5,-8.0,0.0,0.0
-3.5999999999999996,4.5,5.5,-8.0,0.0,0.0
0.40000000000000036,4.5,5.5,-8.0,0.0,0.0
-7.6,-7.5,5.5,-6.0,0.0,0.0
-3.5999999999999996,-7.5,5.5,-6.0,0.0,0.0
0.40000000000000036,-7.5,5.5,-6.0,0.0,0.0
-7.6,-5.5,5.5,-6.0,0.0,0.0
-3.5999999999999996,-5.5,5.5,-6.0,0.0,0.0
0.40000000000000036,-5.5,5.5,-6.0,0.0,0.0
-7.6,-3.5,5.5,-6.0,0.0,0.0
-3.5999999999999996,-3.5,5.5,-6.0,0.0,0.0
0.40000000000000036,-3.5,5.5,-6.0,0.0,0.0
-7.6,-1.5,5.5,-6.0,0.0,0.0
-3.5999999999999996,-1.5,5.5,-6.0,0.0,0.0
0.40000000000000036,-1.5,5.5,-6.0,0.0,0.0
-7.6,0.5,5.5,-6.0,0.0,0.0
-3.5999999999999996,0.5,5.5,-6.0,0.0,0.0
0.40000000000000036,0.5,5.5,-6.0,0.0,0.0
-7.6,2.5,5.5,-6.0,0.0,0.0
-3.5999999999999996,2.5,5.5,-6.0,0.0,0.0
0.40000000000000036,2.5,5.5,-6.0,0.0,0.0
-7.6,4.5,5.5,-6.0,0.0,0.0
-3.5999999999999996,4.5,5.5,-6.0,0.0,0.0
0.40000000000000036,4.5,5.5,-6.0,0.0,0.0
-7.6,-7.5,5.5,-4.0,0.0,0.0
-3.5999999999999996,-7.5,5.5,-4.0,0.0,0.0
0.40000000000000036,-7.5,5.5,-4.0,0.0,0.0
-7.6,-5.5,5.5,-4.0,0.0,0.0
-3.5999999999999996,-5.5,5.5,-4.0,0.0,0.0
0.40000000000000036,-5.5,5.5,-4.0,0.0,0.0
-7.6,-3.5,5.5,-4.0,0.0,0.0
-3.5999999999999996,-3.5,5.5,-4.0,0.0,0.0
0.40000000000000036,-3.5,5.5,-4.0,0.0,0.0
-7.6,-1.5,5.5,-4.0,0.0,0.0
-3.5999999999999996,-1.5,5.5,-4.0,0.0,0.0
0.40000000000000036,-1.5,5.5,-4.0,0.0,0.0
-7.6,0.5,5.5,-4.0,0.0,0.0
-3.5999999999999996,0.5,5.5,-4.0,0.0,0.0
0.40000000000000036,0.5,5.5,-4.0,0.0,0.0
-7.6,2.5,5.5,-4.0,0.0,0.0
-3.5999999999999996,2.5,5.5,-4.0,0.0,0.0
0.40000000000000036,2.5,5.5,-4.0,0.0,0.0
-7.6,4.5,5.5,-4.0,0.0,0.0
-3.5999999999999996,4.5,5.5,-4.0,0.0,0.0
0.40000000000000036,4.5,5.5,-4.0,0.0,0.0
-7.6,-7.5,5.5,-2.0,0.0,0.0
-3.5999999999999996,-7.5,5.5,-2.0,0.0,0.0
0.40000000000000036,-7.5,5.5,-2.0,0.0,0.0
-7.6,-5.5,5.5,-2.0,0.0,0.0
-3.5999999999999996,-5.5,5.5,-2.0,0.0,0.0
0.40000000000000036,-5.5,5.5,-2.0,0.0,0.0
-7.6,-3.5,5.5,-2.0,0.0,0.0
-3.5999999999999996,-3.5,5.5,-2.0,0.0,0.0
0.40000000000000036,-3.5,5.5,-2.0,0.0,0.0
-7.6,-1.5,5.5,-2.0,0.0,0.0
-3.5999999999999996,-1.5,5.5,-2.0,0.0,0.0
0.40000000000000036,-1.5,5.5,-2.0,0.0,0.0
-7.6,0.5,5.5,-2.0,0.0,0.0
-3.5999999999999996,0.5,5.5,-2.0,0.0,0.0
0.40000000000000036,0.5,5.5,-2.0,0.0,0.0
-7.6,2.5,5.5,-2.0,0.0,0.0
-3.5999999999999996,2.5,5.5,-2.0,0.0,0.0
0.40000000000000036,2.5,5.5,-2.0,0.0,0.0
-7.6,4.5,5.5,-2.0,0.0,0.0
-3.5999999999999996,4.5,5.5,-2.0,0.0,0.0
0.40000000000000036,4.5,5.5,-2.0,0.0,0.0
-7.6,-7.5,5.5,0.0,0.0,0.0
-3.5999999999999996,-7.5,5.5,0.0,0.0,0.0
0.40000000000000036,-7.5,5.5,0.0,0.0,0.0
-7.6,-5.5,5.5,0.0,0.0,0.0
-3.5999999999999996,-5.5,5.5,0.0,0.0,0.0
0.40000000000000036,-5.5,5.5,0.0,0.0,0.0
-7.6,-3.5,5.5,0.0,0.0,0.0
-3.5999999999999996,-3.5,5.5,0.0,0.0,0.0
0.40000000000000036,-3.5,5.5,0.0,0.0,0.0
-7.6,-1.5,5.5,0.0,0.0,0.0
-3.5999999999999996,-1.5,5.5,0.0,0.0,0.0
0.40000000000000036,-1.5,5.5,0.0,0.0,0.0
-7.6,0.5,5.5,0.0,0.0,0.0
-3.5999999999999996,0.5,5.5,0.0,0.0,0.0
0.40000000000000036,0.5,5.5,0.0,0.0,0.0
-7.6,2.5,5.5,0.0,0.0,0.0
-3.5999999999999996,2.5,5.5,0.0,0.0,0.0
0.40000000000000036,2.5,5.5,0.0,0.0,0.0
-7.6,4.5,5.5,0.0,0.0,0.0
-3.5999999999999996,4.5,5.5,0.0,0.0,0.0
0.40000000000000036,4.5,5.5,0.0,0.0,0.0
-7.6,-7.5,5.5,2.0,0.0,0.0
-3.5999999999999996,-7.5,5.5,2.0,0.0,0.0
0.40000000000000036,-7.5,5.5,2.0,0.0,0.0
-7.6,-5.5,5.5,2.0,0.0,0.0
-3.5999999999999996,-5.5,5.5,2.0,0.0,0.0
0.40000000000000036,-5.5,5.5,2.0,0.0,0.0
-7.6,-3.5,5.5,2.0,0.0,0.0
-3.5999999999999996,-3.5,5.5,2.0,0.0,0.0
0.40000000000000036,-3.5,5.5,2.0,0.0,0.0
-7.6,-1.5,5.5,2.0,0.0,0.0
-3.5999999999999996,-1.5,5.5,2.0,0.0,0.0
0.40000000000000036,-1.5,5.5,2.0,0.0,0.0
-7.6,0.5,5.5,2.0,0.0,0.0
-3.5999999999999996,0.5,5.5,2.0,0.0,0.0
0.40000000000000036,0.5,5.5,2.0,0.0,0.0
-7.6,2.5,5.5,2.0,0.0,0.0
-3.5999999999999996,2.5,5.5,2.0,0.0,0.0
0.40000000000000036,2.5,5.5,2.0,0.0,0.0
-7.6,4.5,5.5,2.0,0.0,0.0
-3.5999999999999996,4.5,5.5,2.0,0.0,0.0
0.40000000000000036,4.5,5.5,2.0,0.0,0.0
-7.6,-7.5,5.5,4.0,0.0,0.0
-3.5999999999999996,-7.5,5.5,4.0,0.0,0.0
0.40000000000000036,-7.5,5.5,4.0,0.0,0.0
-7.6,-5.5,5.5,4.0,0.0,0.0
-3.5999999999999996,-5.5,5.5,4.0,0.0,0.0
0.40000000000000036,-5.5,5.5,4.0,0.0,0.0
-7.6,-3.5,5.5,4.0,0.0,0.0
-3.5999999999999996,-3.5,5.5,4.0,0.0,0.0
0.40000000000000036,-3.5,5.5,4.0,0.0,0.0
-7.6,-1.5,5.5,4.0,0.0,0.0
-3.5999999999999996,-1.5,5.5,4.0,0.0,0.0
0.40000000000000036,-1.5,5.5,4.0,0.0,0.0
-7.6,0.5,5.5,4.0,0.0,0.0
-3.5999999999999996,0.5,5.5,4.0,0.0,0.0
0.40000000000000036,0.5,5.5,4.0,0.0,0.0
-7.6,2.5,5.5,4.0,0.0,0.0
-3.5999999999999996,2.5,5.5,4.0,0.0,0.0
0.40000000000000036,2.5,5.5,4.0,0.0,0.0
-7.6,4.5,5.5,4.0,0.0,0.0
-3.5999999999999996,4.5,5.5,4.0,0.0,0.0
0.40000000000000036,4.5,5.5,4.0,0.0,0.0
