-10.0,-11.0,-2.0,-8.0,0.0,0.0
-10.0,-11.0,-2.0,-6.0,0.0,0.0
-10.0,-11.0,-2.0,-4.0,0.0,0.0
-10.0,-11.0,-2.0,-2.0,0.0,0.0
-10.0,-11.0,-2.0,0.0,0.0,0.0
-10.0,-11.0,-2.0,2.0,0.0,0.0
-10.0,-11.0,-2.0,4.0,0.0,0.0
-10.0,-11.0,-2.0,6.0,0.0,0.0
-10.0,-11.0,-2.0,8.0,0.0,0.0
-10.0,-11.0,0.0,-8.0,0.0,0.0
-10.0,-11.0,0.0,-6.0,0.0,0.0
-10.0,-11.0,0.0,-4.0,0.0,0.0
-10.0,-11.0,0.0,-2.0,0.0,0.0
-10.0,-11.0,0.0,0.0,0.0,0.0
-10.0,-11.0,0.0,2.0,0.0,0.0
-10.0,-11.0,0.0,4.0,0.0,0.0
-10.0,-11.0,0.0,6.0,0.0,0.0
-10.0,-11.0,0.0,8.0,0.0,0.0
-10.0,-11.0,2.0,-8.0,0.0,0.0
-10.0,-11.0,2.0,-6.0,0.0,0.0
-10.0,-11.0,2.0,-4.0,0.0,0.0
-10.0,-11.0,2.0,-2.0,0.0,0.0
-10.0,-11.0,2.0,0.0,0.0,0.0
-10.0,-11.0,2.0,2.0,0.0,0.0
-10.0,-11.0,2.0,4.0,0.0,0.0
-10.0,-11.0,2.0,6.0,0.0,0.0
-10.0,-11.0,2.0,8.0,0.0,0.0
-10.0,-11.0,4.0,-8.0,0.0,0.0
-10.0,-11.0,4.0,-6.0,0.0,0.0
-10.0,-11.0,4.0,-4.0,0.0,0.0
-10.0,-11.0,4.0,-2.0,0.0,0.0
-10.0,-11.0,4.0,0.0,0.0,0.0
-10.0,-11.0,4.0,2.0,0.0,0.0
-10.0,-11.0,4.0,4.0,0.0,0.0
-10.0,-11.0,4.0,6.0,0.0,0.0
-10.0,-11.0,4.0,8.0,0.0,0.0
-10.0,-11.0,6.0,-8.0,0.0,0.0
-10.0,-11.0,6.0,-6.0,0.0,0.0
-10.0,-11.0,6.0,-4.0,0.0,0.0
-10.0,-11.0,6.0,-2.0,0.0,0.0
-10.0,-11.0,6.0,0.0,0.0,0.0
-10.0,-11.0,6.0,2.0,0.0,0.0
-10.0,-11.0,6.0,4.0,0.0,0.0
-10.0,-11.0,6.0,6.0,0.0,0.0
-10.0,-11.0,6.0,8.0,0.0,0.0
-10.0,-11.0,8.0,-8.0,0.0,0.0
-10.0,-11.0,8.0,-6.0,0.0,0.0
-10.0,-11.0,8.0,-4.0,0.0,0.0
-10.0,-11.0,8.0,-2.0,0.0,0.0
-10.0,-11.0,8.0,0.0,0.0,0.0
-10.0,-11.0,8.0,2.0,0.0,0.0
-10.0,-11.0,8.0,4.0,0.0,0.0
-10.0,-11.0,8.0,6.0,0.0,0.0
-10.0,-11.0,8.0,8.0,0.0,0.0
-10.0,-11.0,10.0,-8.0,0.0,0.0
-10.0,-11.0,10.0,-6.0,0.0,0.0
-10.0,-11.0,10.0,-4.0,0.0,0.0
-10.0,-11.0,10.0,-2.0,0.0,0.0
-10.0,-11.0,10.0,0.0,0.0,0.0
-10.0,-11.0,10.0,2.0,0.0,0.0
-10.0,-11.0,10.0,4.0,0.0,0.0
-10.0,-11.0,10.0,6.0,0.0,0.0
-10.0,-11.0,10.0,8.0,0.0,0.0
-10.0,-11.0,12.0,-8.0,0.0,0.0
-10.0,-11.0,12.0,-6.0,0.0,0.0
-10.0,-11.0,12.0,-4.0,0.0,0.0
-10.0,-11.0,12.0,-2.0,0.0,0.0
-10.0,-11.0,12.0,0.0,0.0,0.0
-10.0,-11.0,12.0,2.0,0.0,0.0
-10.0,-11.0,12.0,4.0,0.0,0.0
-10.0,-11.0,12.0,6.0,0.0,0.0
-10.0,-11.0,12.0,8.0,0.0,0.0
-10.0,-11.0,14.0,-8.0,0.0,0.0
-10.0,-11.0,14.0,-6.0,0.0,0.0
-10.0,-11.0,14.0,-4.0,0.0,0.0
-10.0,-11.0,14.0,-2.0,0.0,0.0
-10.0,-11.0,14.0,0.0,0.0,0.0
-10.0,-11.0,14.0,2.0,0.0,0.0
-10.0,-11.0,14.0,4.0,0.0,0.0
-10.0,-11.0,14.0,6.0,0.0,0.0
-10.0,-11.0,14.0,8.0,0.0,0.0
