-8.8,-3.5, 2.21, -3.5, 0.0, 0.0
-8.8,-3.5, 2.21, -3.5, 0.0, 0.0
-7.8,-3.5, 2.21, -3.5, 0.0, 0.0
-6.8,-3.5, 2.21, -3.5, 0.0, 0.0
-5.8,-3.5, 2.21, -3.5, 0.0, 0.0
-4.8,-3.5, 2.21, -3.5, 0.0, 0.0
-3.8,-3.5, 2.21, -3.5, 0.0, 0.0
-2.8,-3.5, 2.21, -3.5, 0.0, 0.0
-1.8,-3.5, 2.21, -3.5, 0.0, 0.0
-0.8,-3.5, 2.21, -3.5, 0.0, 0.0
0.2,-3.5, 2.21, -3.5, 0.0, 0.0
1.2,-3.5, 2.21, -3.5, 0.0, 0.0
2.2,-3.5, 2.21, -3.5, 0.0, 0.0
3.2,-3.5, 2.21, -3.5, 0.0, 0.0
4.2,-3.5, 2.21, -3.5, 0.0, 0.0
5.2,-3.5, 2.21, -3.5, 0.0, 0.0
-8.8,-2.5, 2.21, -3.5, 0.0, 0.0
-7.8,-2.5, 2.21, -3.5, 0.0, 0.0
-6.8,-2.5, 2.21, -3.5, 0.0, 0.0
-5.8,-2.5, 2.21, -3.5, 0.0, 0.0
-4.8,-2.5, 2.21, -3.5, 0.0, 0.0
-3.8,-2.5, 2.21, -3.5, 0.0, 0.0
-2.8,-2.5, 2.21, -3.5, 0.0, 0.0
-1.8,-2.5, 2.21, -3.5, 0.0, 0.0
-0.8,-2.5, 2.21, -3.5, 0.0, 0.0
0.2,-2.5, 2.21, -3.5, 0.0, 0.0
1.2,-2.5, 2.21, -3.5, 0.0, 0.0
2.2,-2.5, 2.21, -3.5, 0.0, 0.0
3.2,-2.5, 2.21, -3.5, 0.0, 0.0
4.2,-2.5, 2.21, -3.5, 0.0, 0.0
5.2,-2.5, 2.21, -3.5, 0.0, 0.0
-8.8,-1.5, 2.21, -3.5, 0.0, 0.0
-7.8,-1.5, 2.21, -3.5, 0.0, 0.0
-6.8,-1.5, 2.21, -3.5, 0.0, 0.0
-5.8,-1.5, 2.21, -3.5, 0.0, 0.0
-4.8,-1.5, 2.21, -3.5, 0.0, 0.0
-3.8,-1.5, 2.21, -3.5, 0.0, 0.0
-2.8,-1.5, 2.21, -3.5, 0.0, 0.0
-1.8,-1.5, 2.21, -3.5, 0.0, 0.0
-0.8,-1.5, 2.21, -3.5, 0.0, 0.0
0.2,-1.5, 2.21, -3.5, 0.0, 0.0
1.2,-1.5, 2.21, -3.5, 0.0, 0.0
2.2,-1.5, 2.21, -3.5, 0.0, 0.0
3.2,-1.5, 2.21, -3.5, 0.0, 0.0
4.2,-1.5, 2.21, -3.5, 0.0, 0.0
5.2,-1.5, 2.21, -3.5, 0.0, 0.0
5.2,-1.5, 2.21, -3.5, 0.0, 0.0
