,time,timestampU,timestampLV,LNE07BEAM/BASE-H-OFFSET-mm,LNE07BEAM/BASE-H-ANGLE-mrad,LNE07BEAM/BASE-V-OFFSET-mm,LNE07BEAM/BASE-V-ANGLE-mrad,LNE07BEAM/BASE-SHIELD-H-ANGLE-mrad,LNE07BEAM/BASE-SHIELD-V-ANGLE-mrad,LNE07.BSGW.0722/FitAcq#gaussAmplitude-vertical,LNE07.BSGW.0722/FitAcq#gaussAmplitude-horizontal,LNE07.BSGW.0722/FitAcq#gaussSigma-vertical,LNE07.BSGW.0722/FitAcq#gaussSigma-horizontal,LNE07.BSGW.0722/FitAcq#gaussMean-vertical,LNE07.BSGW.0722/FitAcq#gaussMean-horizontal,LNE07.BSGW.0737/FitAcq#gaussAmplitude-vertical,LNE07.BSGW.0737/FitAcq#gaussAmplitude-horizontal,LNE07.BSGW.0737/FitAcq#gaussSigma-vertical,LNE07.BSGW.0737/FitAcq#gaussSigma-horizontal,LNE07.BSGW.0737/FitAcq#gaussMean-vertical,LNE07.BSGW.0737/FitAcq#gaussMean-horizontal,LNE07.BSGW.0744/FitAcq#gaussAmplitude-vertical,LNE07.BSGW.0744/FitAcq#gaussAmplitude-horizontal,LNE07.BSGW.0744/FitAcq#gaussSigma-vertical,LNE07.BSGW.0744/FitAcq#gaussSigma-horizontal,LNE07.BSGW.0744/FitAcq#gaussMean-vertical,LNE07.BSGW.0744/FitAcq#gaussMean-horizontal
0,2021-10-22 13:19:08.525404,1634901548.7114277,3717746348.7114286,-10.0,-11.0,0.0,-0.5,0.0,0.0,1984.6207332230185,577.6134633331054,1.2709418585381784,3.668476447237685,-0.17854877043378709,-2.406921709719074,2560.002790759897,1060.3087607799116,1.0915880652825836,2.5886766179216862,-1.3818275348616622,-7.8920519871230885,324.9159935015462,570.0483059686516,3.726698303907648,2.071735090073674,-1.5577963718852,-8.64632682952916
1,2021-10-22 13:19:48.624591,1634901588.7531588,3717746388.7531605,-10.0,-11.0,0.0,0.0,0.0,0.0,1915.307586440221,572.5080985586634,1.2586560657680015,3.5728224336648537,-0.1875527495155159,-2.046901489900293,2570.2674861328696,1068.0910354897283,1.0844112289256844,2.5894365895341873,-1.4320512921093789,-7.747158942909992,312.3981962035777,562.8320572617645,3.7203711413090654,2.0317616095579356,-1.6020681037273308,-8.611813963654798
2,2021-10-22 13:22:09.019667,1634901729.1839857,3717746529.1839867,-10.0,-11.0,-1.0,0.0,0.0,0.0,1937.5358792629934,553.5527693242843,1.232465301239258,3.622054746759252,-0.15717099003451426,-2.014366506669036,2823.3236800397426,1049.5045275928421,1.0690011024350017,2.5808920010749827,-1.6771340236898946,-7.764470559791748,311.58038943197346,548.1852304656952,3.681505711717377,2.004062966596141,-2.5565300150335544,-8.537863427556417
3,2021-10-22 13:24:29.565690,1634901869.6965563,3717746669.696557,-10.0,-11.0,-2.0,0.0,0.0,0.0,1906.3297154633292,550.5097803276682,1.24117624852353,3.539572821487956,-0.13502642394476266,-2.207159492989795,3155.7591108696465,1033.2589178680676,1.0580255726130428,2.655900590408763,-1.8868471698066673,-7.8703092874414,319.9043828966837,538.9508391605635,3.7068692862610835,1.9784984310498586,-3.78231226746757,-8.586749388191743
4,2021-10-22 13:26:49.942121,1634902010.077133,3717746810.077134,-10.0,-11.0,-3.0,0.0,0.0,0.0,1968.4833432868338,570.0396506938068,1.2268993643582486,3.608729668672193,-0.1408175943950569,-2.1975075449730466,3364.571392990742,1087.6928582682622,1.0765731155784681,2.5196238014464947,-2.1188174677217417,-7.722059417163018,327.0959046356932,560.1601480564921,3.739510043763962,2.005192256216161,-4.6453722918962566,-8.651886789149387
5,2021-10-22 13:29:10.238550,1634902150.3825185,3717746950.3825192,-10.0,-11.0,-4.0,0.0,0.0,0.0,1898.9520750240467,572.0724078757918,1.2455982250092055,3.49444947814341,-0.1582515353188365,-1.8499061558726877,3460.1718646842414,1067.6410725332846,1.0706145088728405,2.556099090859846,-2.349942518220778,-7.64132260519764,314.0367857535711,554.4287698139846,3.6701057002473028,2.0107752918909165,-5.3992055045101885,-8.584156668246356
6,2021-10-22 13:31:30.705039,1634902290.833621,3717747090.8336215,-10.0,-11.0,-5.0,0.0,0.0,0.0,1901.2215668443187,550.1013922013195,1.2390060585341134,3.5180879148983992,-0.1497483839116208,-2.0255814667995007,3376.6362872519526,1045.0896519471341,1.0840367812684755,2.552525556135456,-2.56026865843093,-7.676541898528646,330.10862516993586,557.7227165977753,3.4855089137075126,2.0637577793691326,-6.303877314702657,-8.610988493549113
7,2021-10-22 13:33:51.010839,1634902431.15402,3717747231.1540213,-10.0,-11.0,1.0,0.0,0.0,0.0,1886.4478574298982,559.973442856059,1.264955688756414,3.6434052287020364,-0.17294997801823095,-2.1220969304352555,2286.3487272393645,1061.4210731181752,1.078067897432272,2.57088646136993,-1.131031885913713,-7.713335482442975,313.874668570311,535.333498955017,3.745090642795964,2.028094524375066,-0.6670119023384979,-8.48882417827073
8,2021-10-22 13:36:11.550841,1634902571.6798959,3717747371.6798964,-10.0,-11.0,2.0,0.0,0.0,0.0,1975.0745527841534,556.59257159289,1.2364024259452193,3.670851754196664,-0.18802649825102627,-2.159859774240007,1945.3069152150197,1111.7865868402896,1.1891504476581878,2.4945232258935124,-0.8156654580071466,-7.790487582743894,321.61156166290147,553.7948350620549,3.566143525485205,1.9839487920022798,0.3656321935872634,-8.5535615869954
9,2021-10-22 13:46:19.928432,1634903180.0612948,3717747980.061296,-10.0,-11.0,3.0,0.0,0.0,0.0,1934.9243886394931,548.9905485803774,1.2318523014640868,3.6626817997439427,-0.15964626589172437,-2.4189220077979057,1609.068811136781,1054.2072977797043,1.5168060914671528,2.571638838797956,-0.293208666909587,-7.848622889056386,316.6501858572259,541.5249936366465,3.7300303790721157,2.010683472999778,1.3622698669400555,-8.550974913544115
10,2021-10-22 13:48:40.233966,1634903320.364891,3717748120.3648944,-10.0,-11.0,4.0,0.0,0.0,0.0,1945.7862463227807,571.0358138660648,1.2583002152665455,3.5880162411338157,-0.12214620404303102,-2.31585021044704,1604.2320735845447,1075.5491607996648,1.623534463024707,2.587487573550289,0.26617855448020916,-7.76227808343972,318.75745907935556,593.0904917949584,3.7317384278721986,2.015598603514324,2.36937661054834,-8.618597086508291
11,2021-10-22 13:51:00.608139,1634903460.7741556,3717748260.7741566,-10.0,-11.0,5.0,0.0,0.0,0.0,1948.9102046448859,587.0602105988462,1.2727419119093766,3.5725755479800108,-0.19408479519518237,-2.0437901914798116,1777.6819535834536,1073.7194794858626,1.4575332152004563,2.578012407327971,0.8773139995324961,-7.684425533205962,332.85286818318906,564.5755084329134,3.6350128751640733,2.078705300605503,3.32764069669885,-8.537922647152733
12,2021-10-22 13:53:21.214396,1634903601.344132,3717748401.3441324,-10.0,-11.0,6.0,0.0,0.0,0.0,1896.0265007293976,564.1553825679534,1.2368964361456696,3.596130424822957,-0.1575011584361861,-2.1612119035771302,2037.0260108389182,1033.319240713233,1.162723544820577,2.5915164993553974,1.303647115243453,-7.760405396517145,319.7225756000473,543.2460374879543,3.4261171664140213,2.0192583553824432,4.243404828115939,-8.455755559018884
13,2021-10-22 13:55:41.381978,1634903741.5136743,3717748541.5136795,-10.0,-11.0,7.0,0.0,0.0,0.0,1981.3501426658038,568.0674272460734,1.2509512387737918,3.6365750731176316,-0.1643620336678177,-2.0520375260468615,2705.8578568282724,1045.3541103443736,0.8523591858224269,2.660308249858464,1.6342556363332816,-7.699033035447024,339.32693228189856,561.1548083731466,3.4744089208148643,2.0160667221862396,5.266658695215341,-8.340991304996624
14,2021-10-22 13:58:01.633714,1634903881.7629013,3717748681.7629023,-10.0,-11.0,8.0,0.0,0.0,0.0,1972.8216233859712,561.7245347858234,1.245430087169229,3.651136271691966,-0.14882858827149748,-2.113939189892197,3090.180018099446,1062.790001080443,0.7103518425515702,2.6166102291890243,1.8038299558652973,-7.921646563074005,330.97822591196064,567.369957729059,3.4714960725972914,2.0181947684913824,6.099259801562287,-8.491105222224036
15,2021-10-22 14:00:22.346949,1634904022.4798503,3717748822.479851,-10.0,-11.0,9.0,0.0,0.0,0.0,1860.1146876442363,547.2088682438812,1.25043202323143,3.70519279062105,-0.2432523593018077,-1.8795686130808726,3080.293422295692,1025.9116775148925,0.7254420430318269,2.601321655731827,1.8591409707783908,-7.864736884307939,292.3164931415038,555.5190743450415,3.412014676740035,2.0065876478938005,6.844189932979584,-8.674584165969188
16,2021-10-22 14:02:42.633274,1634904162.7744853,3717748962.7744865,-10.0,-11.0,10.0,0.0,0.0,0.0,1989.5164078788105,597.578598854292,1.25662858369329,3.5476203784899716,-0.010731442651393192,-0.5336094357106071,2782.1744263325772,1065.443820081638,0.9490443280667569,2.6572280727594455,2.0916246493660897,-7.465510968680579,311.748958215209,586.9445095099649,3.416629496999365,1.977621682681422,7.258152383732047,-8.365267654098552
17,2021-10-22 14:05:03.018900,1634904303.1392994,3717749103.1393003,-10.0,-11.0,11.0,0.0,0.0,0.0,1969.0247002249066,582.3748156812085,1.2557741043461672,3.496146977425552,-0.10262328134809814,-0.7730898164684232,2705.0050491615534,1095.1768030816604,0.9354379708086318,2.531030760763977,2.072288821264597,-7.766345473218952,325.6203692489563,580.5712464926097,3.3224115274704573,1.9454349918970204,8.37474905899332,-8.70765867315274
18,2021-10-22 14:07:23.444083,1634904443.5804155,3717749243.580416,-10.0,-11.0,12.0,0.0,0.0,0.0,1872.9846735894023,568.1834953655,1.280575564685061,3.647496899986784,-0.21261477311973578,-2.0354155079769947,2308.0959624622233,1073.1037078799982,1.2184360249115156,2.536794124829274,2.800575159148931,-7.679529337851707,323.26667167310273,553.6413876817506,3.148504244954165,2.0526415978099584,9.600810549489593,-8.42053919913425
19,2021-10-22 14:09:43.814676,1634904583.945153,3717749383.945154,-10.0,-11.0,13.0,0.0,0.0,0.0,1921.9257026929386,552.9913416014479,1.2238511486879964,3.635125926044544,-0.17100179516444014,-1.6570128426261654,2200.594973056497,1021.726726273971,1.2109254132362886,2.6394173837898265,3.152929814014238,-7.659044276726493,301.25922007981296,567.8911302634114,2.8077741485808394,1.9912482857323686,9.903003773763889,-8.297652460720117
20,2021-10-22 14:12:04.207803,1634904724.3395867,3717749524.339588,-10.0,-11.0,14.0,0.0,0.0,0.0,1924.240576277243,588.749910455098,1.2745475052124415,3.476495044434881,-0.022805508591612036,-0.8291495164961055,2321.139929694427,1056.7070231050168,1.1898901152903503,2.58778355562086,3.4263880916149816,-7.602686183347231,288.2901929972532,610.3668533230446,2.6683342957158667,1.9519761714922093,9.945735080772778,-8.555449969750136
21,2021-10-22 14:14:24.825780,1634904864.9463449,3717749664.946349,-10.0,-11.0,15.0,0.0,0.0,0.0,1996.9556527897741,598.7186320992216,1.2781919993374724,3.5304557587670584,-0.00538695912186804,-0.7728334287757229,2387.155625497105,1069.9497826050424,1.195794155084938,2.744169881860113,3.779059138716613,-7.622596074473496,277.50115635995263,607.9446303323338,2.6648066353492053,2.0319202320510388,11.039695194036167,-8.43553300986098
22,2021-10-22 14:16:45.131544,1634905005.2902422,3717749805.290243,-10.0,-11.0,5.5,0.0,0.0,0.0,1964.3659387688544,575.1175100745949,1.25266952613287,3.644013806050976,-0.14237021176001372,-2.376961209041286,1862.5107249323241,1113.359080562676,1.349403335299501,2.5349637777405856,1.1054995258182496,-7.831059946553986,317.8663971713081,535.5790134966475,3.5258569425454374,2.018047274338989,3.618993388143541,-8.42037826681828
23,2021-10-22 14:19:05.422873,1634905145.5577254,3717749945.557726,-9.0,-11.0,5.5,0.0,0.0,0.0,1880.1912383822128,555.7728896830331,1.2174365195067502,3.4770062878708217,-0.16276668545479644,-2.5305495546581893,1773.0989508116681,970.4256196650039,1.2861246450738135,2.721962067943094,1.1365012112217254,-7.3168661383691385,313.5814313595821,529.7850603652561,3.494213705779314,2.0128320339922063,3.7801333348025614,-7.722238859819486
24,2021-10-22 14:21:25.740280,1634905285.872232,3717750085.8722324,-8.0,-11.0,5.5,0.0,0.0,0.0,1955.581261694736,573.386366610655,1.2477907603146492,3.532015042844958,-0.012049164261155446,-1.0642722726029867,1822.472944695807,881.4745077826472,1.3347675600691762,3.0586470455685335,1.0550577922928497,-6.483413474891424,320.81186492370773,542.7775149658563,3.413510553317733,2.010762342327947,3.300747283948147,-6.904015536361992
25,2021-10-22 14:23:46.058615,1634905426.1943338,3717750226.1943345,-7.0,-11.0,5.5,0.0,0.0,0.0,2022.3201811920005,591.3050451899142,1.2513333549665406,3.5929866866914035,-0.01985169261664082,-0.8541595831922832,2025.841056473493,810.2795618623626,1.2994408734628016,3.416255450751017,1.1354521268992313,-5.58801114644154,330.9999524204156,568.4804878941861,3.476115149337643,2.034488533149821,3.4264504847978765,-6.167622823753585
26,2021-10-22 14:26:06.665329,1634905566.7923644,3717750366.792365,-6.0,-11.0,5.5,0.0,0.0,0.0,1824.1846828415382,541.1611817103804,1.2387699333342832,3.5019081397367726,-0.2386952284420448,-1.5717674610179282,1795.8736809629738,676.2035410324776,1.282406796339672,3.4442193393192126,1.121012013848306,-4.777303656557905,301.66651598222427,504.536715814131,3.5087931176431475,2.103449280320865,4.20186475146233,-5.35218154272998
27,2021-10-22 14:28:27.029824,1634905707.1586504,3717750507.158651,-5.0,-11.0,5.5,0.0,0.0,0.0,1998.866710063072,576.8653734205191,1.2399320945804004,3.593401703991851,-0.1944309796912895,-1.92831290822185,2101.839322139812,681.3307176336629,1.1860515562482516,3.440907416820942,1.3024447050304846,-3.416348524164561,332.689260600801,541.8610924830016,3.5010902431236777,2.0809292650770552,4.269241144747562,-4.307204508170331
28,2021-10-22 14:30:48.554041,1634905848.684695,3717750648.6846957,-3.0,-11.0,5.5,0.0,0.0,0.0,1875.1207778320063,558.1948734344948,1.2666876672012073,3.5931510691796604,-0.26379209813406446,-1.5722799749701062,1751.1223093695028,665.8646832035963,1.3723890893702253,3.11366313750309,1.0170956554757336,-1.6386704980309719,312.0249508176075,520.769694712448,3.513563876012544,2.081801614199612,4.352474994528574,-3.0115083673200367
29,2021-10-22 14:33:02.882622,1634905983.0196428,3717750783.019644,-2.0,-11.0,5.5,0.0,0.0,0.0,2052.372648248783,613.1432780424235,1.2691275353813656,3.557269806162629,-0.014119617249496478,-1.1918433122402805,2299.141238631715,724.6126361779886,1.1367113103294852,3.0352876841621828,1.3523535156118034,-0.7029782868003932,341.6844189432612,565.7351663595548,3.8064318701138307,2.12827556419466,3.9065737187956073,-2.1253914030627117
30,2021-10-22 14:35:17.522205,1634906117.6557543,3717750917.655755,-1.0,-11.0,5.5,0.0,0.0,0.0,1906.9703149937545,554.329501873182,1.2642676107531183,3.6836494259441266,-0.21187278757926392,-2.020150449588853,2091.893094360418,677.6756151197719,1.1793036943586541,2.9690848479717,1.3315012226331044,0.01995229919405113,322.8071726476629,504.1532250015801,3.6039575905559063,2.1882163752464505,4.529520625842187,-1.3177104532274813
31,2021-10-22 14:37:31.769910,1634906251.8959062,3717751051.8959074,0.0,-11.0,5.5,0.0,0.0,0.0,1940.2965697452785,584.9544674382942,1.2882109161563475,3.6915053003780938,-0.13886934735379453,-1.9611793892007239,2481.469812339606,686.8837120739312,1.0060950643023967,3.0271838940643745,1.4853776018375335,1.0448071386013729,326.8408572454362,549.3763529662582,3.5493268802321896,2.1850630998135903,4.49709003767817,-0.22459684786335463
32,2021-10-22 14:39:46.116063,1634906386.2577252,3717751186.2577267,-11.0,-11.0,5.5,0.0,0.0,0.0,1935.9543023583176,567.1721394895831,1.229703388049656,3.591662564588645,-0.11513223397780491,-2.0762588337932724,1824.393474193957,1130.0645557365765,1.3598500282810626,2.3523476381699755,1.05673467773072,-8.167964860280302,319.0449570153243,568.3582825474367,3.3495821142160773,1.951692648679096,3.6298259767072003,-9.262758236958152
33,2021-10-22 14:42:00.722657,1634906520.8424735,3717751320.8424745,-12.0,-11.0,5.5,0.0,0.0,0.0,1967.3227925554027,568.5077218791743,1.247221938132981,3.6482334335076803,-0.12197046223956204,-2.0293451429945226,1811.8413186328253,1116.5848262473642,1.395250538683012,2.318791523837284,0.9770850132000238,-8.650954220501067,315.0403165702826,604.2676769562247,3.429012263135201,1.8044695269517346,3.6038700118200566,-9.860277726539746
34,2021-10-22 14:44:14.965985,1634906655.1089244,3717751455.108925,-13.0,-11.0,5.5,0.0,0.0,0.0,2009.3463087600405,586.5141020000436,1.2822290522170388,3.7363293583279704,-0.14699055665443508,-2.017247230466809,1834.3158130112436,1101.2856716962815,1.4268337487743439,2.3068811787278176,0.95332331173499,-9.0249782943604,322.8788000873375,684.0491387093189,3.5332401228995494,1.5666459263408081,3.7950724045102757,-10.278805817344761
35,2021-10-22 14:46:29.319310,1634906789.4467113,3717751589.4467125,-14.0,-11.0,5.5,0.0,0.0,0.0,1980.9242461411748,592.8034413211229,1.2885945803998593,3.6408392605468416,-0.12665577623492294,-1.9774184398359922,1824.7595774089762,804.8889502359748,1.4472234707421248,2.926813476116366,0.9161223784726985,-10.098131945109495,287.6215477931199,628.1664106783294,3.205176976643766,1.5464699828957562,3.620136478810696,-10.817272607160467
36,2021-10-22 14:48:43.702763,1634906923.8276074,3717751723.827608,-15.0,-11.0,5.5,0.0,0.0,0.0,2017.1942327962029,583.3344864945344,1.2605700712006203,3.7155640768065,-0.14371158184934588,-2.092586443058666,1783.6847929789742,688.9417270480895,1.4562009531225255,3.1617772459846187,0.8804916042793,-11.085224431689593,274.2471837770213,567.7512577098591,3.7708130735212606,1.6135027586826372,4.203862661945376,-11.457141068708111
37,2021-10-22 14:50:58.241382,1634907058.377492,3717751858.377493,-10.0,-11.0,0.0,0.0,0.0,0.0,1905.8685819261188,577.9196557662395,1.291904422851464,3.5888218516534227,-0.1416474956649345,-1.96778752190913,2691.28874434134,1068.2296772742636,1.0446703668557398,2.6441200761911587,-1.4347907592510118,-7.759217351423099,327.1460747123159,570.8900510123633,3.8135393281882606,2.049456883755657,-1.5860015517551187,-8.586890206010398
38,2021-10-22 14:53:12.569954,1634907192.6899757,3717751992.6899767,-10.0,-11.0,0.0,0.0,0.0,0.0,2032.9869097837504,597.2846694035604,1.2731567272166506,3.601986925074466,-0.1711775661805711,-2.0223953140659123,2763.19887017274,1098.6450652375665,1.093433717622788,2.6065873910418893,-1.4942490833573143,-7.780064609320773,335.84133135549627,576.1182027624417,3.791790112542087,2.043003283972582,-1.5555875537769441,-8.628443337053492
39,2021-10-22 14:55:27.268814,1634907327.3957233,3717752127.3957243,-10.0,-11.0,0.0,0.0,0.0,0.0,1996.7121028960164,586.3803936098036,1.2396687921485126,3.5546741811786746,-0.16071193347954008,-1.908972480450022,2671.6084428300446,1054.8115267945752,1.0827449545036065,2.5589966386939,-1.444788869322567,-7.744015391707716,322.77335872844327,567.8353605531597,3.7802714375175155,1.9666699188013126,-1.5315247842915765,-8.61270660958204
40,2021-10-22 14:57:41.468734,1634907461.595617,3717752261.5956206,-10.0,-11.0,0.0,0.0,0.0,0.0,1908.7287824036114,576.3910387540889,1.2584568397442866,3.5947219093027387,-0.25982931673804927,-1.6738789805262078,2759.7351686899874,1089.7139254749238,1.0569503917432033,2.582909613881569,-1.4697918040945264,-7.8325908613085575,325.15222356628306,556.1408724875134,3.765899853643614,2.0142286810645618,-1.3439232917497101,-8.610845596231382
