,time,timestampU,timestampLV,LNE07BEAM/BASE-H-OFFSET-mm,LNE07BEAM/BASE-H-ANGLE-mrad,LNE07BEAM/BASE-V-OFFSET-mm,LNE07BEAM/BASE-V-ANGLE-mrad,LNE07.BSGW.0722/FitAcq#gaussAmplitude-vertical,LNE07.BSGW.0722/FitAcq#gaussAmplitude-horizontal,LNE07.BSGW.0722/FitAcq#gaussSigma-vertical,LNE07.BSGW.0722/FitAcq#gaussSigma-horizontal,LNE07.BSGW.0722/FitAcq#gaussMean-vertical,LNE07.BSGW.0722/FitAcq#gaussMean-horizontal,LNE07.BSGW.0737/FitAcq#gaussAmplitude-vertical,LNE07.BSGW.0737/FitAcq#gaussAmplitude-horizontal,LNE07.BSGW.0737/FitAcq#gaussSigma-vertical,LNE07.BSGW.0737/FitAcq#gaussSigma-horizontal,LNE07.BSGW.0737/FitAcq#gaussMean-vertical,LNE07.BSGW.0737/FitAcq#gaussMean-horizontal,LNE07.BSGW.0744/FitAcq#gaussAmplitude-vertical,LNE07.BSGW.0744/FitAcq#gaussAmplitude-horizontal,LNE07.BSGW.0744/FitAcq#gaussSigma-vertical,LNE07.BSGW.0744/FitAcq#gaussSigma-horizontal,LNE07.BSGW.0744/FitAcq#gaussMean-vertical,LNE07.BSGW.0744/FitAcq#gaussMean-horizontal
0,2021-10-20 12:18:20.975554,1634725101.1644294,3717569901.16443,0.0,0.0,0.0,0.0,393.8403710403375,121.76937250774004,0.9920447240575563,2.6811350923158055,0.12126051003365958,-0.07277431143040924,505.85302531101,166.53193471808555,0.9001648350381766,2.514114617641958,-0.9559515996142528,-2.205115408023163,117.38015516815635,197.53049114382375,2.8022332027158634,1.5569109395299205,-1.5684333227073606,-0.23108137916698998
1,2021-10-20 12:18:28.281883,1634725108.4019825,3717569908.4019837,1.0,0.0,1.0,0.0,550.1257385819268,168.85046375079614,1.0513817096949631,2.779625978200188,0.10503817545400415,-0.34264912056210306,753.6441172624369,237.12946944991094,0.567944685148265,2.557503816624679,-0.4325221071155076,-1.6935874678427578,166.8729142182207,270.27446979104775,2.8597872265855826,1.7123627769314964,-0.5798552349464924,0.1844176566147482
2,2021-10-20 12:18:44.343748,1634725124.4615376,3717569924.4615383,0.0,1.0,0.0,1.0,449.1868556131322,137.39381771479316,1.0162486298135749,2.703515571447875,0.08747354086046623,0.22767647692208368,620.6740712005994,185.68255034159887,0.9100275956504434,2.5112208772711546,-1.0867919267458384,-2.2764460189238664,129.82011820465752,224.7318936091457,2.9109565030663305,1.6505057230900413,-1.4737895386348188,-0.16010082330563963
3,2021-10-20 12:19:00.252090,1634725140.3902502,3717569940.390251,-1.0,0.0,-1.0,0.0,333.5600856596146,103.34690917682875,0.992136497572877,2.5303817926076597,0.10185095446226891,-0.4570245837809638,508.7866832604117,140.7893247955416,0.8839413873586583,2.655255258216972,-1.278935712220157,-3.2105045009264654,0.0,169.55299134073505,0.0,1.5839857966532576,0.0,-1.0313874111397618
4,2021-10-20 12:19:16.270152,1634725156.3855054,3717569956.3855066,0.0,-1.0,0.0,-1.0,520.8383895080268,160.61009978344336,1.021927610110975,2.7520586394612083,0.1437593247314482,0.3976868738546704,653.3264457961276,219.06146165839715,0.9139737577148171,2.557791397581221,-0.868368219809912,-1.966633523924867,154.16665435769488,258.56957021932345,2.918027603361348,1.6503709759368794,-1.644360386603621,-0.5594439876710694
