,time,timestampU,timestampLV,LNE07BEAM/BASE-H-OFFSET-mm,LNE07BEAM/BASE-H-ANGLE-mrad,LNE07BEAM/BASE-V-OFFSET-mm,LNE07BEAM/BASE-V-ANGLE-mrad,LNE07BEAM/BASE-SHIELD-H-ANGLE-mrad,LNE07BEAM/BASE-SHIELD-V-ANGLE-mrad,LNE07.BSGW.0722/FitAcq#gaussAmplitude-vertical,LNE07.BSGW.0722/FitAcq#gaussAmplitude-horizontal,LNE07.BSGW.0722/FitAcq#gaussSigma-vertical,LNE07.BSGW.0722/FitAcq#gaussSigma-horizontal,LNE07.BSGW.0722/FitAcq#gaussMean-vertical,LNE07.BSGW.0722/FitAcq#gaussMean-horizontal,LNE07.BSGW.0737/FitAcq#gaussAmplitude-vertical,LNE07.BSGW.0737/FitAcq#gaussAmplitude-horizontal,LNE07.BSGW.0737/FitAcq#gaussSigma-vertical,LNE07.BSGW.0737/FitAcq#gaussSigma-horizontal,LNE07.BSGW.0737/FitAcq#gaussMean-vertical,LNE07.BSGW.0737/FitAcq#gaussMean-horizontal,LNE07.BSGW.0744/FitAcq#gaussAmplitude-vertical,LNE07.BSGW.0744/FitAcq#gaussAmplitude-horizontal,LNE07.BSGW.0744/FitAcq#gaussSigma-vertical,LNE07.BSGW.0744/FitAcq#gaussSigma-horizontal,LNE07.BSGW.0744/FitAcq#gaussMean-vertical,LNE07.BSGW.0744/FitAcq#gaussMean-horizontal
0,2021-10-25 14:27:41.675248,1635164861.8402133,3718009661.840214,-7.5,-12.0,2.0,2.0,0.0,0.0,1970.6191389244907,570.2529321650259,1.2555822424554521,3.698427072790063,-0.3264467199491732,-2.3359960299136824,0.0,30.25550988638089,0.0,4.555656286674996,0.0,-5.436480665983515,0.0,0.0,0.0,0.0,0.0,0.0
1,2021-10-25 14:29:25.850095,1635164965.9835553,3718009765.9835563,-10.0,-16.0,0.0,0.0,0.0,0.0,1909.5354694912621,554.5275829890846,1.2367574600936133,3.6005003199946737,-0.31430335571086643,-2.0702361401953926,0.0,31.86560054415887,0.0,5.019284293378251,0.0,-5.778071724433919,0.0,0.0,0.0,0.0,0.0,0.0
2,2021-10-25 14:31:26.933139,1635165087.081022,3718009887.0810227,-7.5,-16.0,0.0,0.0,0.0,0.0,1977.8697556513303,570.5053608715978,1.2597884820566387,3.7227135182578746,-0.23223153901821947,-2.3361150989195245,0.0,30.165403349390534,0.0,4.427220494599027,0.0,-5.516858742373726,12772.24533002517,0.0,162.8570834326873,0.0,154.8997248705679,0.0
3,2021-10-25 14:33:49.757556,1635165229.899861,3718010029.899862,-5.0,-16.0,0.0,0.0,0.0,0.0,1890.0103488638522,566.2837288344834,1.2427265018501246,3.5762370470008014,-0.24962293747155062,-2.0209320218826683,0.0,29.394205839177307,0.0,4.26433826470895,0.0,-6.066725312373751,0.0,0.0,0.0,0.0,0.0,0.0
4,2021-10-25 14:35:50.963414,1635165351.0999355,3718010151.0999365,-2.5,-16.0,0.0,0.0,0.0,0.0,1867.0136698246647,547.0871758305996,1.2452778070185877,3.5439935551860096,-0.27444797539367843,-1.8481372327733496,0.0,29.927460426339557,0.0,4.719910577444576,0.0,-6.27151702011896,0.0,0.0,0.0,0.0,0.0,0.0
5,2021-10-25 14:38:13.916772,1635165494.6561985,3718010294.656199,0.0,-16.0,0.0,0.0,0.0,0.0,1957.1686123250086,567.4546664632758,1.2665099863365545,3.7148360975725274,-0.30555654680798705,-2.135686888830032,0.0,31.70672043864646,0.0,4.582317261038807,0.0,-6.208941120763977,0.0,0.0,0.0,0.0,0.0,0.0
6,2021-10-25 14:40:14.952207,1635165615.0886073,3718010415.088622,-10.0,-15.0,0.0,0.0,0.0,0.0,1991.7260319713105,587.2892265278401,1.2468751647327525,3.68432834518084,-0.2760906362806508,-2.306405977430899,0.0,31.594503724895475,0.0,5.2316119670424,0.0,-6.463270129140351,1273.8988768890779,0.0,120.18355733009278,0.0,-103.66585724728608,0.0
7,2021-10-25 14:42:37.951241,1635165758.082555,3718010558.082556,-7.5,-15.0,0.0,0.0,0.0,0.0,1889.4825329120501,578.6180956033903,1.2371315930299738,3.508408993273508,-0.2864279027325952,-2.196296890946971,0.0,30.558046270148925,0.0,4.81674924508085,0.0,-6.0121807932782,0.0,0.0,0.0,0.0,0.0,0.0
8,2021-10-25 14:44:46.209517,1635165886.3530881,3718010686.3530893,-5.0,-15.0,0.0,0.0,0.0,0.0,1923.2817713411512,564.3581597500108,1.2238650809129086,3.5175427074544245,-0.3034861888350328,-1.9315938350739883,0.0,29.799837370651634,0.0,4.559491574309316,0.0,-6.361880489183255,3855.4096226550614,0.0,134.65068983664867,0.0,120.56748848343948,0.0
9,2021-10-25 14:47:16.304763,1635166036.4295928,3718010836.4295936,-2.5,-15.0,0.0,0.0,0.0,0.0,1855.2505696463857,541.8138679706503,1.2284496585432374,3.570731706316339,-0.2676671476456011,-2.149136745983334,0.0,31.334974651471033,0.0,5.22975142523893,0.0,-5.814709964362409,0.0,0.0,0.0,0.0,0.0,0.0
10,2021-10-25 14:49:28.261704,1635166168.3948748,3718010968.3948755,0.0,-15.0,0.0,0.0,0.0,0.0,1969.8760819292208,581.7174483389738,1.2734383430329974,3.770869614671431,-0.29102092887325404,-2.5308099357185987,0.0,29.83114404293591,0.0,4.450250622984071,0.0,-6.41236088470623,0.0,0.0,0.0,0.0,0.0,0.0
11,2021-10-25 14:52:17.548658,1635166337.669327,3718011137.6693277,-10.0,-14.0,0.0,0.0,0.0,0.0,1887.9483772632236,546.994980636856,1.2024464099970777,3.5727200992451613,-0.33939371603023555,-2.1479232613847437,0.0,33.02101268743563,0.0,4.569840695535477,0.0,-6.418186532600653,12.278150743788778,0.0,18.940191435942776,0.0,4.181892771323696,0.0
12,2021-10-25 14:55:06.851946,1635166506.9789295,3718011306.97893,-7.5,-14.0,0.0,0.0,0.0,0.0,1812.8358086740936,550.7551841202696,1.2225985508730726,3.421360476243287,-0.2953934779535052,-2.181198786735063,0.0,30.04121766769188,0.0,4.649145408642639,0.0,-5.861272468788288,0.0,0.0,0.0,0.0,0.0,0.0
13,2021-10-25 14:57:55.905592,1635166676.0383456,3718011476.0383463,-5.0,-14.0,0.0,0.0,0.0,0.0,1786.1059948072827,548.978778457179,1.2083939313354377,3.382766068827638,-0.29427639855679977,-1.980578117924022,0.0,0.0,0.0,0.0,0.0,0.0,0.0,0.0,0.0,0.0,0.0,0.0
14,2021-10-25 15:00:44.985134,1635166845.1279447,3718011645.1279454,-2.5,-14.0,0.0,0.0,0.0,0.0,1860.5938782263124,544.2413870244243,1.2220611280088722,3.5308442166041383,-0.2779432283912182,-2.4707179188034813,0.0,28.119039977130427,0.0,4.862427414538127,0.0,-6.015700047165332,0.0,0.0,0.0,0.0,0.0,0.0
15,2021-10-25 15:03:34.043674,1635167014.2004635,3718011814.2004642,0.0,-14.0,0.0,0.0,0.0,0.0,1883.42984176858,555.0273198504908,1.2335933228756617,3.606114034885241,-0.29901358482759177,-2.5558786815763543,0.0,0.0,0.0,0.0,0.0,0.0,0.0,0.0,0.0,0.0,0.0,0.0
16,2021-10-25 15:06:23.397850,1635167183.5432384,3718011983.543239,-10.0,-13.0,0.0,0.0,0.0,0.0,1893.631459651802,562.8802212708704,1.2322554289007337,3.5364918367226856,-0.2686236889760827,-1.8709423789569073,0.0,29.071776768424467,0.0,5.08139949881815,0.0,-6.10265139187619,0.0,0.0,0.0,0.0,0.0,0.0
17,2021-10-25 15:08:58.302338,1635167338.4363286,3718012138.4363294,-7.5,-13.0,0.0,0.0,0.0,0.0,1917.2215728723634,557.5878434216776,1.2539644714769036,3.627603085564787,-0.29256486757977146,-2.2054194750157317,0.0,34.21321430973044,0.0,4.556089509397845,0.0,-6.76822034620196,0.0,0.0,0.0,0.0,0.0,0.0
18,2021-10-25 15:11:47.409046,1635167507.5326264,3718012307.532627,-5.0,-13.0,0.0,0.0,0.0,0.0,1915.7986032006602,547.1053923365452,1.2180764045270032,3.618144025519314,-0.2713902344778946,-2.2686170268944137,0.0,29.005992582984327,0.0,5.195924366921939,0.0,-5.671854338660725,0.0,0.0,0.0,0.0,0.0,0.0
19,2021-10-25 15:14:36.504425,1635167676.6354885,3718012476.6354895,-2.5,-13.0,0.0,0.0,0.0,0.0,1794.9226305236248,531.4042782852623,1.214752684844037,3.491520591513077,-0.26144038368583455,-2.1520120101543996,0.0,31.777916958685307,0.0,4.680366175669441,0.0,-6.269061199207372,0.0,0.0,0.0,0.0,0.0,0.0
20,2021-10-25 15:17:25.805453,1635167845.9337902,3718012645.933791,0.0,-13.0,0.0,0.0,0.0,0.0,1914.88062365624,569.5925814640609,1.2274927728672753,3.5624428069511205,-0.30601349103217523,-2.386299308746654,0.0,31.567196100219338,0.0,4.960552911072427,0.0,-6.40593648820086,0.0,0.0,0.0,0.0,0.0,0.0
21,2021-10-25 15:20:15.063401,1635168015.193096,3718012815.1930966,-10.0,-12.0,0.0,0.0,0.0,0.0,1846.0514143277712,562.29084411318,1.2435339185716312,3.5382842806844144,-0.27576220606728996,-1.8770981308174393,0.0,31.482503006317817,0.0,4.529067973893626,0.0,-6.1122595117419785,0.0,0.0,0.0,0.0,0.0,0.0
22,2021-10-25 15:23:04.306893,1635168184.432461,3718012984.4324617,-7.5,-12.0,0.0,0.0,0.0,0.0,1929.3975042524899,543.728110928656,1.2482223468833011,3.6774999856393684,-0.22131632382425184,-2.2208680089222628,0.0,29.689560989927934,0.0,4.364131248439903,0.0,-5.6731669688283874,33.42469848635426,0.0,18.333005836975023,0.0,11.412160320343006,0.0
23,2021-10-25 15:25:53.339324,1635168353.478718,3718013153.4787188,-5.0,-12.0,0.0,0.0,0.0,0.0,1950.3806939968606,569.0672749775337,1.2189393351771884,3.5639277820166253,-0.26764944052306217,-2.0049143921242227,0.0,31.229050251146056,0.0,5.069504552236648,0.0,-6.603636658558669,0.0,0.0,0.0,0.0,0.0,0.0
24,2021-10-25 15:28:42.738227,1635168522.8709555,3718013322.870956,-2.5,-12.0,0.0,0.0,0.0,0.0,1793.3634770031724,538.0695211208102,1.1964962209530237,3.3664136742421054,-0.3244319932616685,-1.7365958173145712,0.0,30.541505587337507,0.0,4.443506134212598,0.0,-5.493316347070669,0.0,0.0,0.0,0.0,0.0,0.0
25,2021-10-25 15:31:31.886082,1635168692.021884,3718013492.021887,0.0,-12.0,0.0,0.0,0.0,0.0,1801.4129561011828,588.895506977385,1.216789077768145,3.5734583779868587,-0.23227568157662112,-2.1862780619876396,0.0,32.02068627452782,0.0,4.744713882415889,0.0,-6.286179144067839,0.0,0.0,0.0,0.0,0.0,0.0
26,2021-10-25 15:34:20.944781,1635168861.0905378,3718013661.0905385,-10.0,-11.0,0.0,0.0,0.0,0.0,1909.1577686880353,558.3834040280897,1.2455459374527804,3.573841825870567,-0.35100211744953547,-2.269239527169779,0.0,31.00501989579895,0.0,4.519564343971617,0.0,-5.580092998549449,0.0,0.0,0.0,0.0,0.0,0.0
27,2021-10-25 15:37:10.305744,1635169030.4293597,3718013830.4293604,-7.5,-11.0,0.0,0.0,0.0,0.0,1888.6938395124412,558.9544494548982,1.2248031886101112,3.561965642343776,-0.296987350463521,-2.508707137402069,0.0,31.287115354998196,0.0,4.417655012409712,0.0,-5.843031805731087,0.0,0.0,0.0,0.0,0.0,0.0
28,2021-10-25 15:39:59.492856,1635169199.6170115,3718013999.617012,-5.0,-11.0,0.0,0.0,0.0,0.0,1933.0222358701212,570.175017365247,1.2292952273309716,3.533159391968004,-0.3237692872188139,-2.24101607787313,0.0,33.03670307200506,0.0,4.63537171276122,0.0,-6.725298777313515,11155.951011686015,0.0,197.16358383977038,0.0,181.87140800955535,0.0
29,2021-10-25 15:42:48.722927,1635169368.8565965,3718014168.856597,-2.5,-11.0,0.0,0.0,0.0,0.0,1878.6914497055313,554.7357588696481,1.2326009995411982,3.5842660801519375,-0.28230151027814204,-1.8657825250962412,0.0,29.857901447499387,0.0,4.923701446973832,0.0,-5.874323850901171,0.0,0.0,0.0,0.0,0.0,0.0
30,2021-10-25 15:45:37.799282,1635169537.9312956,3718014337.9312963,0.0,-11.0,0.0,0.0,0.0,0.0,1934.654086591567,559.5280084122029,1.2146888207294146,3.6111954377295077,-0.2826017405990838,-2.0032000757377957,0.0,30.70114310163134,0.0,4.462874237530102,0.0,-5.558581809861132,0.0,0.0,0.0,0.0,0.0,0.0
31,2021-10-25 15:48:27.299939,1635169707.4219222,3718014507.421923,-10.0,-10.0,0.0,0.0,0.0,0.0,1879.62091561071,548.1201747629322,1.2062600435499924,3.4393814327679846,-0.3047181360081003,-1.9615220607326127,0.0,30.62222005664132,0.0,4.897025161361686,0.0,-5.753704801940268,20850.431849717672,0.0,179.17919079538032,0.0,172.85339676907614,0.0
32,2021-10-25 15:51:16.317878,1635169876.4380639,3718014676.4380646,-7.5,-10.0,0.0,0.0,0.0,0.0,1945.4215030651458,571.2942028759796,1.2203467351410173,3.527017379718129,-0.22270675278992186,-2.131040285404116,0.0,30.72014402509671,0.0,4.8529341513101345,0.0,-6.126996915818578,0.0,0.0,0.0,0.0,0.0,0.0
33,2021-10-25 15:54:05.392409,1635170045.5187554,3718014845.518756,-5.0,-10.0,0.0,0.0,0.0,0.0,1877.0129652243725,563.1661966129866,1.2242343231844588,3.565662520782806,-0.2754432569264183,-2.104724700193046,0.0,29.672735823717133,0.0,4.88373981454382,0.0,-5.710485845976831,0.0,0.0,0.0,0.0,0.0,0.0
34,2021-10-25 15:56:54.735135,1635170214.866016,3718015014.8660173,-2.5,-10.0,0.0,0.0,0.0,0.0,1896.992578125588,560.1647102589075,1.228638978390636,3.5430241531791924,-0.2887739551282039,-1.9117921274082155,0.0,32.098405920223854,0.0,4.275821751957169,0.0,-5.94543237358064,0.0,0.0,0.0,0.0,0.0,0.0
35,2021-10-25 15:59:43.743597,1635170383.876461,3718015183.876462,0.0,-10.0,0.0,0.0,0.0,0.0,1923.2265858935516,561.0804477973043,1.2414274398071723,3.5254869232394705,-0.2751872007112405,-1.702725345807761,0.0,30.73747273811002,0.0,4.625720954097006,0.0,-6.230405380412507,0.0,0.0,0.0,0.0,0.0,0.0
36,2021-10-25 16:02:33.088733,1635170553.21252,3718015353.212521,-10.0,-9.0,0.0,0.0,0.0,0.0,1888.3340834930352,539.2037845602505,1.226500571465522,3.603843234288224,-0.2533225488323713,-1.8894165666892149,0.0,0.0,0.0,0.0,0.0,0.0,0.0,0.0,0.0,0.0,0.0,0.0
37,2021-10-25 16:05:22.287978,1635170722.4176888,3718015522.4176893,-7.5,-9.0,0.0,0.0,0.0,0.0,1909.5412546709724,549.0974668352972,1.232602867756472,3.5203299496426967,-0.25682608727891215,-1.9731240086522024,0.0,30.40921792802076,0.0,4.68490398866983,0.0,-6.0739857127495736,0.0,0.0,0.0,0.0,0.0,0.0
38,2021-10-25 16:08:11.267954,1635170891.396295,3718015691.396296,-5.0,-9.0,0.0,0.0,0.0,0.0,1866.077418452005,543.9650234232931,1.2248805070899849,3.658097614692784,-0.26271430665570367,-2.344001023186701,0.0,0.0,0.0,0.0,0.0,0.0,0.0,0.0,0.0,0.0,0.0,0.0
39,2021-10-25 16:11:00.626975,1635171060.752487,3718015860.7524877,-2.5,-9.0,0.0,0.0,0.0,0.0,1890.469712674842,553.593145601528,1.214436435346176,3.5671035984263804,-0.29075857545378114,-2.2932167785329267,0.0,29.822547995080864,0.0,4.500511274522239,0.0,-5.854748069604144,0.0,0.0,0.0,0.0,0.0,0.0
40,2021-10-25 16:13:49.752903,1635171229.8854265,3718016029.8854275,0.0,-9.0,0.0,0.0,0.0,0.0,1822.369108650835,535.3668051963444,1.2065230685255086,3.4370626124711263,-0.3247357447523387,-2.2798888477661885,0.0,0.0,0.0,0.0,0.0,0.0,0.0,0.0,0.0,0.0,0.0,0.0
41,2021-10-25 16:16:38.930742,1635171399.0729353,3718016199.072939,-10.0,-8.0,0.0,0.0,0.0,0.0,2231.6650298554036,638.2925942320492,1.2325444545349649,3.517669541779963,-0.26500086058405464,-2.0015700820119613,0.0,29.585992090899644,0.0,4.62969814165329,0.0,-5.732945530358662,0.0,0.0,0.0,0.0,0.0,0.0
42,2021-10-25 16:19:28.305788,1635171568.441681,3718016368.441682,-7.5,-8.0,0.0,0.0,0.0,0.0,2112.8996810347526,602.3289166437442,1.233764232720329,3.430624701790345,-0.2549085627163731,-1.9992205166751942,0.0,0.0,0.0,0.0,0.0,0.0,0.0,0.0,0.0,0.0,0.0,0.0
43,2021-10-25 16:22:17.540175,1635171737.6661265,3718016537.666127,-5.0,-8.0,0.0,0.0,0.0,0.0,2226.684521519659,604.2760463031015,1.2175993861055083,3.582020787892818,-0.2980255038532867,-2.309738635106643,0.0,32.27459422699811,0.0,4.868661992593458,0.0,-6.020621389394423,14.144349614266885,3726.010549438976,22.644758569662468,0.13558996595300865,3.2621643150189534,-6.487249194197588
44,2021-10-25 16:25:06.758706,1635171906.88757,3718016706.8875704,-2.5,-8.0,0.0,0.0,0.0,0.0,2182.944713380147,621.385384643801,1.2339949455536363,3.5636424339554957,-0.279912059708835,-1.966913941175341,-2.0667397037301688e+83,0.0,4.557100474025698e+78,0.0,3.913798469911018e+80,0.0,0.0,0.0,0.0,0.0,0.0,0.0
45,2021-10-25 16:27:55.749850,1635172075.88158,3718016875.881581,0.0,-8.0,0.0,0.0,0.0,0.0,2113.1794540308324,603.402077693299,1.20395398488113,3.488146023916833,-0.30200839373574206,-1.9007177134704243,0.0,29.81093034629993,0.0,5.171556049128869,0.0,-6.244008652701319,0.0,0.0,0.0,0.0,0.0,0.0
46,2021-10-25 16:30:44.857207,1635172244.9830658,3718017044.9830666,-10.0,-7.0,0.0,0.0,0.0,0.0,2143.212060451652,604.8363921139257,1.2202472502734791,3.5709364591646535,-0.3167703179831797,-2.020596151881071,0.0,32.86861833096103,0.0,5.008757610058169,0.0,-6.6694983411777535,0.0,0.0,0.0,0.0,0.0,0.0
47,2021-10-25 16:33:34.267894,1635172414.4002595,3718017214.4002604,-7.5,-7.0,0.0,0.0,0.0,0.0,2137.4661929344143,603.6876040295107,1.232134412315738,3.4946920521875837,-0.30525792049879596,-1.9832279669663968,0.0,29.584954720615272,0.0,4.454924743748267,0.0,-5.622454729662745,0.0,0.0,0.0,0.0,0.0,0.0
48,2021-10-25 16:36:23.629423,1635172583.7597227,3718017383.7597237,-5.0,-7.0,0.0,0.0,0.0,0.0,2111.8076403985665,596.0560756388393,1.2029920964254845,3.482069471722724,-0.32781887715180413,-1.9788253616184819,0.0,32.03079487767094,0.0,4.451414908229652,0.0,-6.125514369939358,0.0,0.0,0.0,0.0,0.0,0.0
49,2021-10-25 16:39:12.758983,1635172752.8892426,3718017552.889243,-2.5,-7.0,0.0,0.0,0.0,0.0,2224.378747458291,595.65941395235,1.224940736299699,3.5086839423036404,-0.30798662635756574,-2.1633163212159854,0.0,33.76665604300731,0.0,4.529149683119495,0.0,-7.080229726643784,6033.70200819078,0.0,159.80366064372654,0.0,149.07472666683807,0.0
50,2021-10-25 16:42:01.760952,1635172921.8843431,3718017721.8843436,0.0,-7.0,0.0,0.0,0.0,0.0,2157.5967502663225,633.2253589384225,1.219206128804967,3.395953868041406,-0.334766900681726,-1.97977360758096,0.0,31.937116285924827,0.0,4.824038246391695,0.0,-6.753239514890105,0.0,12.747810120639684,0.0,6.1007189890141005,0.0,-15.811837985919265
51,2021-10-25 16:44:50.872742,1635173091.0068355,3718017891.006836,-10.0,-6.0,0.0,0.0,0.0,0.0,2242.445812359604,625.1566373220759,1.2021290118323111,3.534654631574479,-0.28949956838332036,-2.3365277815817285,0.0,0.0,0.0,0.0,0.0,0.0,0.0,-7.374160416958131,0.0,4.037734040305812,0.0,-0.5987228905145469
52,2021-10-25 16:46:50.927193,1635173211.0584085,3718018011.058409,-7.5,-6.0,0.0,0.0,0.0,0.0,2289.396683097006,646.7467961389085,1.2410651960439425,3.627409874063447,-0.270441767260765,-2.4343725168571804,0.0,31.072214731419116,0.0,4.33004025794318,0.0,-5.843077816982693,0.0,0.0,0.0,0.0,0.0,0.0
53,2021-10-25 16:48:58.239021,1635173338.3671255,3718018138.3671265,-5.0,-6.0,0.0,0.0,0.0,0.0,2240.3882317204384,623.1554342907414,1.2698696131974985,3.5828439194757076,-0.3325094022936877,-2.185569125013467,0.0,32.41686704800138,0.0,4.449030315926318,0.0,-5.941213774030462,0.0,0.0,0.0,0.0,0.0,0.0
54,2021-10-25 16:51:05.325842,1635173465.4562206,3718018265.4562216,-2.5,-6.0,0.0,0.0,0.0,0.0,2242.6073205303414,633.5027954778886,1.2656614928260879,3.6865351229486993,-0.3269594291397314,-2.0020231697940463,0.0,31.307081489625467,0.0,4.367220248136743,0.0,-6.059331513758292,0.0,0.0,0.0,0.0,0.0,0.0
55,2021-10-25 16:53:12.713479,1635173592.840725,3718018392.840726,0.0,-6.0,0.0,0.0,0.0,0.0,2288.4987085353564,638.4255185448715,1.2644214529322264,3.699908806845385,-0.331483147784205,-2.2787344974447965,0.0,30.867797494708405,0.0,4.841546480056746,0.0,-5.986151438882299,0.0,0.0,0.0,0.0,0.0,0.0
56,2021-10-25 16:55:19.722584,1635173719.8554275,3718018519.8554287,-10.0,-5.0,0.0,0.0,0.0,0.0,2227.076376409105,621.7092684497118,1.231795015676377,3.5985813543251624,-0.2687643408267492,-2.0059250963644835,0.0,28.015684441572734,0.0,4.4083078707785175,0.0,-5.8239404011068245,0.0,0.0,0.0,0.0,0.0,0.0
57,2021-10-25 16:57:27.128684,1635173847.2572935,3718018647.2572975,-7.5,-5.0,0.0,0.0,0.0,0.0,2272.3606863329383,644.401357655087,1.2608356234710387,3.676279483597256,-0.26642426425347615,-2.4322627418818765,0.0,31.322731374153022,0.0,4.618698426761582,0.0,-5.967216578992696,0.0,0.0,0.0,0.0,0.0,0.0
58,2021-10-25 16:59:34.150051,1635173974.2771788,3718018774.277182,-5.0,-5.0,0.0,0.0,0.0,0.0,2183.309170005768,638.182511859853,1.2443981056159936,3.484168147503673,-0.2745627396954092,-1.940232103245089,0.0,0.0,0.0,0.0,0.0,0.0,0.0,0.0,0.0,0.0,0.0,0.0
59,2021-10-25 17:01:41.546022,1635174101.6745446,3718018901.6745453,-2.5,-5.0,0.0,0.0,0.0,0.0,2287.730966633153,652.6114676821505,1.2402480688456958,3.526940556628744,-0.3015973266564453,-2.288172504021611,0.0,0.0,0.0,0.0,0.0,0.0,0.0,0.0,0.0,0.0,0.0,0.0
60,2021-10-25 17:03:48.701697,1635174228.8430834,3718019028.843084,0.0,-5.0,0.0,0.0,0.0,0.0,2268.620148197628,639.0162081079843,1.2575523574840124,3.663012467440338,-0.3130689020073161,-2.2699781385747784,0.0,0.0,0.0,0.0,0.0,0.0,14.88570419450691,0.0,6.525150706306782,0.0,-15.39199677910644,0.0
61,2021-10-25 17:05:55.745538,1635174355.9019084,3718019155.90191,-10.0,-4.0,0.0,0.0,0.0,0.0,2251.5230882429278,639.9651549223737,1.2503016352071543,3.6769862707501213,-0.3190897230655945,-1.842990379305188,0.0,0.0,0.0,0.0,0.0,0.0,0.0,0.0,0.0,0.0,0.0,0.0
62,2021-10-25 17:08:03.086907,1635174483.214162,3718019283.2141657,-7.5,-4.0,0.0,0.0,0.0,0.0,2194.3981359441386,633.9024391722547,1.2617371071574204,3.602400306121458,-0.2865183742879267,-2.1125145602174418,0.0,30.76366069320758,0.0,4.666530958412622,0.0,-6.330854833285486,0.0,0.0,0.0,0.0,0.0,0.0
63,2021-10-25 17:10:10.092192,1635174610.2237,3718019410.223704,-5.0,-4.0,0.0,0.0,0.0,0.0,2239.2375799865786,627.155464972864,1.2426480216006315,3.6424284557183704,-0.27609922370896317,-2.194038972330793,0.0,0.0,0.0,0.0,0.0,0.0,0.0,0.0,0.0,0.0,0.0,0.0
64,2021-10-25 17:12:17.267803,1635174737.403108,3718019537.4031115,-2.5,-4.0,0.0,0.0,0.0,0.0,2271.0939594664515,643.7615567505854,1.2736151627677488,3.609020421733149,-0.34208069255610923,-1.963014879219422,0.0,31.913304879977815,0.0,4.717570680461571,0.0,-7.0225453883678695,0.0,0.0,0.0,0.0,0.0,0.0
65,2021-10-25 17:14:17.343548,1635174857.4772446,3718019657.4772453,0.0,-4.0,0.0,0.0,0.0,0.0,2258.3818740238576,649.1894610905443,1.2574696848046387,3.631499592367866,-0.30837817405284806,-2.1825036100127297,0.0,30.0476359303856,0.0,5.143020769569322,0.0,-6.665922721358937,0.0,0.0,0.0,0.0,0.0,0.0
66,2021-10-25 17:16:17.316638,1635174977.4491024,3718019777.4491053,-10.0,-3.0,0.0,0.0,0.0,0.0,2330.908248313824,646.1377045394407,1.2534940797540917,3.595384687320088,-0.3066471420727055,-2.2162432258858105,0.0,0.0,0.0,0.0,0.0,0.0,0.0,0.0,0.0,0.0,0.0,0.0
67,2021-10-25 17:18:17.356649,1635175097.4997432,3718019897.4997463,-7.5,-3.0,0.0,0.0,0.0,0.0,2226.6796136053417,619.2407073694163,1.240955390594821,3.569743115393566,-0.31685293308419965,-2.2174021498080227,0.0,31.1610616032853,0.0,4.39533267071834,0.0,-6.546532099447378,0.0,-8.459684279429524,0.0,3.7043390827747444,0.0,-0.3605624495074786
68,2021-10-25 17:22:17.426060,1635175337.5547931,3718020137.5547943,-5.0,-3.0,0.0,0.0,0.0,0.0,2048.1782503267577,583.9914308779207,1.184762844318613,3.4871278197834465,-0.26850284998820073,-2.1312520741354013,0.0,33.04419116148291,0.0,5.612676060386171,0.0,-6.535084598075155,0.0,0.0,0.0,0.0,0.0,0.0
69,2021-10-25 17:24:17.498264,1635175457.6339257,3718020257.6339264,-2.5,-3.0,0.0,0.0,0.0,0.0,2214.334024699943,654.6512534123943,1.2513616495927493,3.6012464367813966,-0.3186611494504668,-2.328293981004703,0.0,31.452842453418807,0.0,4.950804553241548,0.0,-6.2773720894064144,0.0,0.0,0.0,0.0,0.0,0.0
70,2021-10-25 17:26:17.352287,1635175577.4830105,3718020377.4830112,0.0,-3.0,0.0,0.0,0.0,0.0,2297.621054446068,662.8581040681604,1.2461693068070832,3.5697224185779963,-0.27535298411170356,-2.148373988113457,0.0,34.01485180600288,0.0,5.028200203455786,0.0,-7.059046901449365,0.0,0.0,0.0,0.0,0.0,0.0
71,2021-10-25 17:28:17.512014,1635175697.6427505,3718020497.642754,-10.0,-2.0,0.0,0.0,0.0,0.0,2262.55891596219,644.803447518934,1.228171257789399,3.524317184810547,-0.3394291924689536,-2.1515840538529685,0.0,31.6486167021824,0.0,4.458137385487241,0.0,-6.209182602826628,0.0,0.0,0.0,0.0,0.0,0.0
72,2021-10-25 17:30:17.557627,1635175817.6871936,3718020617.6871967,-7.5,-2.0,0.0,0.0,0.0,0.0,2300.0077474280706,641.9271559138808,1.2740576798184773,3.68856831842766,-0.27358249008546287,-2.010639438341314,0.0,31.96070242382281,0.0,4.400743270645168,0.0,-6.1351846337824485,0.0,0.0,0.0,0.0,0.0,0.0
73,2021-10-25 17:32:17.345922,1635175937.479255,3718020737.4792566,-5.0,-2.0,0.0,0.0,0.0,0.0,2268.1567615076196,636.3842834188478,1.2518187967135541,3.646588224206912,-0.28286655039706865,-2.0469029989008365,-32.63012606799174,29.839447465678724,15.405890586425548,4.2576473099789585,16.98260494777021,-6.173738801627447,40.40836140068932,0.0,30.674301326573996,0.0,12.862441306118503,0.0
74,2021-10-25 17:34:17.515796,1635176057.643451,3718020857.6434517,-2.5,-2.0,0.0,0.0,0.0,0.0,2230.4291271503243,623.5569516666264,1.2367069890198912,3.5286832309139284,-0.329247958133644,-2.2102141879122335,0.0,32.358297972116816,0.0,4.875694404892602,0.0,-7.059020857966902,0.0,0.0,0.0,0.0,0.0,0.0
75,2021-10-25 17:36:17.576589,1635176177.702118,3718020977.7021184,0.0,-2.0,0.0,0.0,0.0,0.0,2194.031824831459,618.7655351087914,1.2349344154674706,3.5889969817713068,-0.27404478606662114,-2.2728111828511537,0.0,32.53604624366971,0.0,4.670151347211688,0.0,-6.4497464885421465,0.0,0.0,0.0,0.0,0.0,0.0
76,2021-10-25 17:38:17.434213,1635176297.5740528,3718021097.5740547,-10.0,-1.0,0.0,0.0,0.0,0.0,2251.0962489048547,628.0516220285043,1.24398645758824,3.6676519196448143,-0.25527815192283526,-2.4620309473446005,0.0,0.0,0.0,0.0,0.0,0.0,0.0,0.0,0.0,0.0,0.0,0.0
77,2021-10-25 17:40:17.360455,1635176417.4802048,3718021217.4802055,-7.5,-1.0,0.0,0.0,0.0,0.0,2286.9800638051006,644.10325773121,1.2605977326381799,3.5812214777423086,-0.28408311974260475,-1.859196838821681,0.0,0.0,0.0,0.0,0.0,0.0,0.0,0.0,0.0,0.0,0.0,0.0
78,2021-10-25 17:42:17.490173,1635176537.6297052,3718021337.629706,-5.0,-1.0,0.0,0.0,0.0,0.0,2302.555226471762,640.4134431819018,1.230976560535571,3.5902728353245794,-0.2965081583853396,-2.264577315401509,0.0,32.58941893579486,0.0,4.507931446444182,0.0,-6.734754339604105,0.0,0.0,0.0,0.0,0.0,0.0
79,2021-10-25 17:44:17.279062,1635176657.3996968,3718021457.3996983,-2.5,-1.0,0.0,0.0,0.0,0.0,2238.700236712735,641.3069392412278,1.2573201066640154,3.623740844831044,-0.2841583032720691,-2.036562309887008,0.0,30.32931608682614,0.0,4.4151723261069895,0.0,-5.967916880818109,0.0,0.0,0.0,0.0,0.0,0.0
80,2021-10-25 17:46:17.521847,1635176777.6443074,3718021577.644308,0.0,-1.0,0.0,0.0,0.0,0.0,2203.280183058299,637.9446099000812,1.25632280593988,3.62109828709313,-0.3334415696392118,-2.0773976453075806,0.0,0.0,0.0,0.0,0.0,0.0,0.0,0.0,0.0,0.0,0.0,0.0
81,2021-10-25 17:48:17.348439,1635176897.4710104,3718021697.4710116,-10.0,0.0,0.0,0.0,0.0,0.0,2283.463586996149,651.9540578261266,1.265792928813228,3.67497624607183,-0.24535235039955972,-2.2668332918365746,0.0,34.002179339280204,0.0,4.758100740504252,0.0,-6.375617285099246,0.0,0.0,0.0,0.0,0.0,0.0
82,2021-10-25 17:50:17.411873,1635177017.5398524,3718021817.539853,-7.5,0.0,0.0,0.0,0.0,0.0,2305.3642795665637,645.6718162964744,1.2694403651747879,3.642406979633129,-0.3619108838445413,-2.368894712584988,0.0,31.333302050173415,0.0,5.194809082819193,0.0,-5.756362219966473,0.0,0.0,0.0,0.0,0.0,0.0
83,2021-10-25 17:52:17.246655,1635177137.3749819,3718021937.374983,-5.0,0.0,0.0,0.0,0.0,0.0,2269.0402250417224,624.4149670350264,1.249339494102978,3.6593726088478142,-0.34590980752950434,-2.1088588176404146,0.0,31.45803358119757,0.0,4.746881497125907,0.0,-6.178419755220954,0.0,0.0,0.0,0.0,0.0,0.0
84,2021-10-25 17:54:17.346481,1635177257.4799678,3718022057.4799685,-2.5,0.0,0.0,0.0,0.0,0.0,2251.704408986008,646.3386482829594,1.2662522119636672,3.5496801826230784,-0.2917892993831034,-1.9134816503555458,0.0,31.361058421454008,0.0,5.0326562467454,0.0,-6.142193901438547,0.0,-7.863435094102698,0.0,3.786337867374135,0.0,0.5053517243481368
85,2021-10-25 17:56:17.497885,1635177377.6223161,3718022177.622317,0.0,0.0,0.0,0.0,0.0,0.0,2215.672206709747,636.1696781146719,1.258607911422415,3.6404500521769405,-0.28589584489867714,-2.3651185346050427,0.0,30.005651175441606,0.0,4.542627734756612,0.0,-6.088911256461388,0.0,0.0,0.0,0.0,0.0,0.0
86,2021-10-25 17:58:17.547016,1635177497.6708803,3718022297.6708813,-10.0,1.0,0.0,0.0,0.0,0.0,2246.750003472017,622.5907362696589,1.254425497579525,3.648924851612058,-0.2831801930469856,-2.4137370715166266,0.0,33.93111762898216,0.0,5.0438829839924155,0.0,-6.673855069226189,0.0,0.0,0.0,0.0,0.0,0.0
87,2021-10-25 18:00:17.306912,1635177617.449259,3718022417.4492607,-7.5,1.0,0.0,0.0,0.0,0.0,2204.425887479435,630.6207625661139,1.2754463164994683,3.692325561703013,-0.3082873967050727,-1.9164994870033811,0.0,33.11158232025315,0.0,4.284329730317754,0.0,-6.224954258462744,0.0,0.0,0.0,0.0,0.0,0.0
88,2021-10-25 18:02:17.348142,1635177737.478749,3718022537.47875,-5.0,1.0,0.0,0.0,0.0,0.0,2273.2147850884285,642.5756655440786,1.2831635220661042,3.648900401990307,-0.2916867515016385,-2.3101385305282807,0.0,0.0,0.0,0.0,0.0,0.0,0.0,0.0,0.0,0.0,0.0,0.0
89,2021-10-25 18:04:17.475427,1635177857.6109679,3718022657.6109686,-2.5,1.0,0.0,0.0,0.0,0.0,2252.965948176253,626.7815497677611,1.2606027247563334,3.5926538040435374,-0.2523609678009746,-2.3018613973392497,0.0,32.34901536572536,0.0,4.102788577047482,0.0,-6.111904703445578,0.0,0.0,0.0,0.0,0.0,0.0
90,2021-10-25 18:06:17.238209,1635177977.3635452,3718022777.3635454,0.0,1.0,0.0,0.0,0.0,0.0,2228.398204972535,623.4353822993032,1.245412263677287,3.580736353908149,-0.2976695546939976,-2.143813122646181,0.0,34.50629220562014,0.0,4.807266526771458,0.0,-6.9753853446875045,0.0,-5.02534393217792,0.0,1.9403312379460396,0.0,-0.751682990232191
91,2021-10-25 18:08:17.338027,1635178097.4749997,3718022897.4750004,-10.0,2.0,0.0,0.0,0.0,0.0,2271.953294846009,634.8845270946301,1.2322766038603499,3.6461598378991207,-0.3203495283187151,-2.2908373126393142,0.0,0.0,0.0,0.0,0.0,0.0,0.0,0.0,0.0,0.0,0.0,0.0
92,2021-10-25 18:10:17.477907,1635178217.5996747,3718023017.599675,-7.5,2.0,0.0,0.0,0.0,0.0,2249.7277496072434,632.4309545103245,1.2647893677661164,3.6967229017072762,-0.3101182094142271,-2.1078159769868043,0.0,31.883580499780052,0.0,4.418102301968515,0.0,-5.9838490984182755,0.0,0.0,0.0,0.0,0.0,0.0
93,2021-10-25 18:12:17.447211,1635178337.5853646,3718023137.5853653,-5.0,2.0,0.0,0.0,0.0,0.0,2246.314290587352,630.2737925531231,1.2380827285538414,3.5820161255288507,-0.26808827161149573,-2.010918080307423,0.0,31.304342283509797,0.0,4.6039395489456725,0.0,-6.130554067431019,0.0,-6.111628290418549,0.0,3.935262827412424,0.0,0.40007495612202476
94,2021-10-25 18:14:17.552982,1635178457.67792,3718023257.677921,-2.5,2.0,0.0,0.0,0.0,0.0,2274.4781148520774,632.0142475850133,1.2464059119307231,3.6035354281615395,-0.2901819079527848,-1.983539364000814,0.0,0.0,0.0,0.0,0.0,0.0,0.0,-9.106731080854024,0.0,3.159961649728348,0.0,0.041743820528622765
95,2021-10-25 18:16:17.346071,1635178577.486256,3718023377.4862566,0.0,2.0,0.0,0.0,0.0,0.0,2247.3327924205832,629.0783652053358,1.2752718168788209,3.6349578236417335,-0.2866360620859903,-2.3498157421940205,0.0,32.80715317632529,0.0,4.457155024848497,0.0,-6.360295652874771,0.0,0.0,0.0,0.0,0.0,0.0
