,time,timestampU,timestampLV,LNE07BEAM/BASE-H-OFFSET-mm,LNE07BEAM/BASE-H-ANGLE-mrad,LNE07BEAM/BASE-V-OFFSET-mm,LNE07BEAM/BASE-V-ANGLE-mrad,LNE07.BSGW.0722/FitAcq#gaussAmplitude-vertical,LNE07.BSGW.0722/FitAcq#gaussAmplitude-horizontal,LNE07.BSGW.0722/FitAcq#gaussSigma-vertical,LNE07.BSGW.0722/FitAcq#gaussSigma-horizontal,LNE07.BSGW.0722/FitAcq#gaussMean-vertical,LNE07.BSGW.0722/FitAcq#gaussMean-horizontal,LNE07.BSGW.0737/FitAcq#gaussAmplitude-vertical,LNE07.BSGW.0737/FitAcq#gaussAmplitude-horizontal,LNE07.BSGW.0737/FitAcq#gaussSigma-vertical,LNE07.BSGW.0737/FitAcq#gaussSigma-horizontal,LNE07.BSGW.0737/FitAcq#gaussMean-vertical,LNE07.BSGW.0737/FitAcq#gaussMean-horizontal,LNE07.BSGW.0744/FitAcq#gaussAmplitude-vertical,LNE07.BSGW.0744/FitAcq#gaussAmplitude-horizontal,LNE07.BSGW.0744/FitAcq#gaussSigma-vertical,LNE07.BSGW.0744/FitAcq#gaussSigma-horizontal,LNE07.BSGW.0744/FitAcq#gaussMean-vertical,LNE07.BSGW.0744/FitAcq#gaussMean-horizontal
0,2021-10-20 12:13:55.842529,1634724836.0202525,3717569636.020253,0.0,0.0,0.0,0.0,544.2516657947125,168.51686945286204,1.0439586296429515,2.8016026663284967,0.04225824998759039,-0.23632873244818087,715.0955867547316,228.0411203264234,0.9304740828091591,2.5907296208347503,-0.9773087408494876,-2.2875464316542597,165.79226092121635,271.8769925544137,2.9631754596691455,1.721976750001982,-1.2325040326721441,-0.42795070744565483
1,2021-10-20 12:14:01.424766,1634724841.5591443,3717569641.559145,0.0,0.0,0.0,0.0,544.2516657947125,168.51686945286204,1.0439586296429515,2.8016026663284967,0.04225824998759039,-0.23632873244818087,715.0955867547316,228.0411203264234,0.9304740828091591,2.5907296208347503,-0.9773087408494876,-2.2875464316542597,165.79226092121635,271.8769925544137,2.9631754596691455,1.721976750001982,-1.2325040326721441,-0.42795070744565483
2,2021-10-20 12:14:16.865220,1634724856.9823334,3717569656.982334,0.0,0.0,0.0,0.0,388.5157593160433,119.52075753699647,0.987297983538016,2.6210902692128055,-8.557932285747586e-05,-0.03729090281406368,507.1693021187907,168.6929659443346,0.5854055701078001,2.4384832871186015,-0.47407751968628153,-1.9171200781916793,0.0,192.79892489358735,0.0,1.552882902116122,0.0,-0.03998043168534939
3,2021-10-20 12:15:02.157878,1634724902.2717192,3717569702.27172,0.0,0.0,0.0,0.0,436.74825830741634,130.42017000609647,0.9900750493442859,2.710737668813935,-0.04817205722376721,0.17700048330022797,558.7341092687567,186.30801435206507,0.5875556894676278,2.434957167155392,-0.47352740110525043,-1.8823992620877557,130.34910154341486,214.10983161017893,2.721443842388032,1.6270195364841176,-0.7152850458024163,-0.07481727938714655
4,2021-10-20 12:15:18.148395,1634724918.2636812,3717569718.263682,0.0,0.0,0.0,0.0,426.0436700973017,131.324324733326,1.0126824287524796,2.6205105522124286,-0.04446930054961844,0.12051507893082043,572.8702578716618,179.54968270765784,0.5772858022829468,2.548546861422526,-0.4521601058066668,-2.029507230631487,0.0,215.42483728761778,0.0,1.6134077905918445,0.0,-0.15806601641746407
