,time,timestampU,timestampLV,LNE07BEAM/BASE-H-OFFSET-mm,LNE07BEAM/BASE-H-ANGLE-mrad,LNE07BEAM/BASE-V-OFFSET-mm,LNE07BEAM/BASE-V-ANGLE-mrad,LNE07BEAM/BASE-SHIELD-H-ANGLE-mrad,LNE07BEAM/BASE-SHIELD-V-ANGLE-mrad,LNE07.BSGW.0722/FitAcq#gaussAmplitude-vertical,LNE07.BSGW.0722/FitAcq#gaussAmplitude-horizontal,LNE07.BSGW.0722/FitAcq#gaussSigma-vertical,LNE07.BSGW.0722/FitAcq#gaussSigma-horizontal,LNE07.BSGW.0722/FitAcq#gaussMean-vertical,LNE07.BSGW.0722/FitAcq#gaussMean-horizontal,LNE07.BSGW.0737/FitAcq#gaussAmplitude-vertical,LNE07.BSGW.0737/FitAcq#gaussAmplitude-horizontal,LNE07.BSGW.0737/FitAcq#gaussSigma-vertical,LNE07.BSGW.0737/FitAcq#gaussSigma-horizontal,LNE07.BSGW.0737/FitAcq#gaussMean-vertical,LNE07.BSGW.0737/FitAcq#gaussMean-horizontal,LNE07.BSGW.0744/FitAcq#gaussAmplitude-vertical,LNE07.BSGW.0744/FitAcq#gaussAmplitude-horizontal,LNE07.BSGW.0744/FitAcq#gaussSigma-vertical,LNE07.BSGW.0744/FitAcq#gaussSigma-horizontal,LNE07.BSGW.0744/FitAcq#gaussMean-vertical,LNE07.BSGW.0744/FitAcq#gaussMean-horizontal
0,2021-10-23 00:30:53.523409,1634941853.6720564,3717786653.672059,-4.0,-6.0,-5.0,1.0,0.0,0.0,111.0436317436656,0.0,0.8429850560732136,0.0,-0.24545161014900818,0.0,-19.696168730206615,55.50929785873926,0.9351409915398162,2.317817365450618,-6.8364716255993745,-4.291287775051623,0.0,-12.965471748391826,0.0,1.2706668483776855,0.0,-9.206852075254334
1,2021-10-23 00:33:03.080437,1634941983.2093983,3717786783.2093987,-10.0,-11.0,0.0,-7.0,0.0,0.0,168.63913009337253,0.0,0.6501622121288855,0.0,-0.3278062751697232,0.0,179.3819307240025,-37658.79470040464,0.506955419162093,907.88951973263,-0.3445078945410429,1338.8911544046814,0.0,2.3678535383038166e+162,0.0,3.980052680120661e+157,0.0,-1.0899857331590333e+159
2,2021-10-23 00:35:35.484968,1634942135.6170483,3717786935.617049,-10.0,-11.0,0.0,-6.0,0.0,0.0,57.648516404639686,16.319764054390436,0.8869490889338586,0.0271514033728035,-0.24183493283394705,13.020703527622446,-9.792896219740149,0.0,1.7427189048499014,0.0,-6.013062715125461,0.0,0.0,313162711.13823587,0.0,0.2479550488851141,0.0,9.508247871806544
3,2021-10-23 00:37:45.130399,1634942265.2612886,3717787065.2612896,-10.0,-11.0,0.0,-5.0,0.0,0.0,183.0015199345639,0.0,0.73736216928322,0.0,-0.3066363682850069,0.0,195.67388306230907,88.86345128742953,0.5616625790285874,0.3301226437290545,-0.5415097189599721,-11.523626975462491,79.3076923076923,52.08826553944178,1.0,0.05474547214879314,-166.945280652242,-27.553874563166517
4,2021-10-23 00:40:17.447901,1634942417.5731952,3717787217.5731964,-10.0,-11.0,0.0,-4.0,0.0,0.0,155.63848839269588,0.0,0.6216800963936616,0.0,-0.4200349856172931,0.0,139.55013577975822,118.19841345523635,0.529254371473662,1.832109669707187,-0.6373428800201408,-8.294712483163764,24.099336767903598,-333.99426868981277,0.08530660299387859,1.2793283660703265,-14.176803378402205,-32.84858438716418
5,2021-10-23 00:42:26.903152,1634942547.0420618,3717787347.0420628,-10.0,-11.0,0.0,-3.0,0.0,0.0,182.07465310966344,0.0,0.6514119673039678,0.0,-0.2512638393979513,0.0,190.17142010053385,116.69258441922503,0.6975138528520981,1.8362772095546747,-0.9255477057014356,-7.9392191191473165,0.0,446858470010.0963,0.0,6050730.411662118,0.0,-1000469272.7929579
6,2021-10-23 00:44:48.635006,1634942688.7676573,3717787488.767658,-10.0,-11.0,0.0,-2.0,0.0,0.0,182.7709056587131,-30.730120015489117,0.6591956452121503,7.138142115586189,-0.28101842223832674,-20.013267582635116,196.35644573752862,-29016.31623759359,0.6979035278262913,1.492975714160369,-1.1173859478032715,46.07211708868855,0.0,68.55080213903743,0.0,1.0,0.0,179.0399265274548
7,2021-10-23 00:47:05.336203,1634942825.4642017,3717787625.464203,-10.0,-11.0,0.0,-1.0,0.0,0.0,177.09357663447418,52.0568337690163,0.719426084137032,1.8383154466827891,-0.1862888413421925,-2.134158385190863,238.33706476035366,63.065760995711244,0.7232398986907606,0.050071174447891546,-1.3359819019510544,-21.565114994545358,0.0,15843096077627.611,0.0,1045295214.6245711,0.0,-7956183965.177559
8,2021-10-23 00:49:22.345033,1634942962.480702,3717787762.4807024,-10.0,-11.0,0.0,0.0,0.0,0.0,193.1791212286674,56.55054425348354,0.6988881365969537,1.6646786779395328,-0.2743110270648126,-1.6727850472265127,264.56288126102044,140.41850629378212,0.6871095540896964,1.7567087658143659,-1.321657454067628,-8.154783382469255,52.502638997545596,-15.735071269357247,1.5969348402490424,6.548519618006876,-1.4690107081462562,-30.560565921912254
9,2021-10-23 00:51:39.020552,1634943099.151687,3717787899.1516905,-10.0,-11.0,0.0,1.0,0.0,0.0,198.67090218226838,51.03270070854308,0.6313790011659769,1.875133992891793,-0.3543473208934988,-1.622000139308248,332.79348368337276,30.77802960620222,0.618348142481846,0.3275242810253745,-1.5231627526557339,-11.298691182219928,0.0,68.7566844919786,0.0,1.0,0.0,-305.1240013315588
10,2021-10-23 00:53:55.758383,1634943235.8881311,3717788035.888132,-10.0,-11.0,0.0,2.0,0.0,0.0,115.50482238278646,0.0,0.7507688375328209,0.0,-0.3399527821342247,0.0,176.13910872490672,-32609.883735344178,0.7051929607862979,967.5741506197236,-1.5387446287833804,1500.710534385041,0.0,49.843064281244416,0.0,13.245576496793042,0.0,48.77302477997611
11,2021-10-23 00:56:12.687703,1634943372.8164809,3717788172.8164816,-10.0,-11.0,0.0,3.0,0.0,0.0,166.27330165762646,54.05200065635733,0.6972845244370602,1.6763367553017532,-0.22290141442696054,-1.5823724125140022,338.05040180642436,56.20136865698273,0.6071241118251983,0.023321236917446017,-1.6638394502289955,-14.436443029485513,0.0,74.7566844919786,0.0,1.0,0.0,97.32757727508196
12,2021-10-23 00:58:29.300846,1634943509.429609,3717788309.4296093,-10.0,-11.0,0.0,4.0,0.0,0.0,171.01400237146993,0.0,0.7392750279974638,0.0,-0.2524338753214368,0.0,385.24586155557864,153.67409496070667,0.5914109339819497,1.6788366788701443,-1.729350717914439,-8.155027784918703,0.0,75.6470588235294,0.0,1.0,0.0,-186.93016709044895
13,2021-10-23 01:00:46.260552,1634943646.3856976,3717788446.385699,-10.0,-11.0,0.0,5.0,0.0,0.0,138.18852544313606,0.0,0.8222490632934208,0.0,-0.2048840607771755,0.0,286.32163341557293,42.122403192088655,0.6893187104463371,0.34747624152738515,-1.7939164117611919,-11.413011789273611,0.0,-17.91000930729423,0.0,5.5233823721047655,0.0,-25.38345090609646
14,2021-10-23 01:03:03.138166,1634943783.2676728,3717788583.2676735,-10.0,-11.0,0.0,6.0,0.0,0.0,156.33019117837867,52.53615886132017,0.7876909848315803,1.8572712384814798,-0.28356429910908926,-1.2489093759735854,264.8964863322884,101.4094944470671,0.7267711299878253,2.0414874486802526,-1.943430372921077,-7.733553215104639,0.0,-92959.94157966864,0.0,194.50213655022603,0.0,1860.2898618199858
15,2021-10-23 01:05:19.962866,1634943920.0865905,3717788720.0865912,-10.0,-11.0,0.0,7.0,0.0,0.0,168.8427715588288,-14.41539757658125,0.7383327408917117,1.1584306802745676,-0.2509397770925148,-6.9695086030233355,237.55220051067286,-37326.92349197524,0.8534909894141849,888.9934559387304,-2.1477024556734445,1346.0215630166738,0.0,75.61764705882354,0.0,1.0,0.0,-68.30796460177002
16,2021-10-23 01:07:36.542000,1634944056.662678,3717788856.6626787,-10.0,-11.0,0.0,8.0,0.0,0.0,128.38679956682205,0.0,0.7831843031309451,0.0,-0.3003332483880058,0.0,205.86831156199395,26.192377555085734,0.8667925308140183,0.24272741373972126,-2.3548584069955742,-10.958636657826252,0.0,2.323696672098728e+126,0.0,2.2595975748490638e+122,0.0,-5.47041379138475e+123
17,2021-10-23 01:09:53.346718,1634944193.4757378,3717788993.4757385,-10.0,-11.0,0.0,9.0,0.0,0.0,177.2496739754338,52.65064405529751,0.6806898323287504,1.9065275656140728,-0.2587680179332402,-1.5975604782187853,307.1147888043265,121.16387152289627,0.7972658009433009,1.874517267466863,-2.4327636698598587,-7.992428322946098,0.0,84.23529411764706,0.0,1.0,0.0,-92.08288879770203
18,2021-10-23 01:14:26.995636,1634944467.1194663,3717789267.119467,-10.0,-11.0,0.0,10.0,0.0,0.0,165.3805121366952,0.0,0.8148125413774803,0.0,-0.2606485403311293,0.0,277.8127748779452,-40.64759652175708,0.8490656712706526,5.901589748406408,-2.507118371835655,-25.705988612971108,0.0,2.1474852162336112e+66,0.0,8.334832122678427e+61,0.0,-1.4675193522823274e+63
19,2021-10-23 01:16:43.860872,1634944603.9776335,3717789403.977634,-10.0,-11.0,0.0,11.0,0.0,0.0,183.57984047948793,56.45409025695704,0.628085522411589,1.8165425424961084,-0.2819720810567474,-1.2016570573618675,304.26514906471004,39.379467522564745,0.8073122704970599,0.3534009424239346,-2.628566602859995,-11.401969402095188,44.74599755325804,52.259608649547445,1.8429190583043917,0.08328259439937691,-1.6483309173501195,-25.291624571147995
20,2021-10-23 01:19:00.452953,1634944740.585348,3717789540.5853486,-10.0,-11.0,0.0,12.0,0.0,0.0,180.10089208289497,0.0,0.7301403040246578,0.0,-0.2629381180846252,0.0,-20.373568154315944,121.82160650095345,1.039751785532182,1.8838892323937397,-7.095618419429972,-7.84559111378363,-7.356696444938397,-797.6629274336171,0.953857266978998,0.4122155015421036,-6.743051223420219,37.05067564702568
21,2021-10-23 01:21:17.279645,1634944877.403944,3717789677.403945,-10.0,-11.0,0.0,12.0,0.0,0.0,159.73762594557888,-20.485896320433238,0.6374538564609297,2.3129983805389847,-0.21495850236079048,-9.391886413871255,226.74500305903797,-32.56915441029718,0.8223685279650897,5.670211283291113,-2.9534050152087663,-25.69267137147651,0.0,2.051443859950521e+22,0.0,7.176126286808731e+18,0.0,-7.404951035095933e+19
22,2021-10-23 01:23:34.162080,1634945014.279835,3717789814.2798357,-10.0,-11.0,0.0,12.0,0.0,0.0,163.66947925661313,47.27903041074614,0.7014314548840539,1.9851853099830283,-0.21710544465866963,-1.7765950038603642,-19.44491171901849,-38.58005447224619,0.8815824014119948,5.534817520033616,-7.208333215222208,-25.968355744388372,0.0,53.38235294117647,0.0,1.0,0.0,72.89777542372885
23,2021-10-23 01:25:50.926932,1634945151.0604541,3717789951.060455,-10.0,-11.0,0.0,12.0,0.0,0.0,146.85928462878866,-27.87767005952218,0.7287558297082897,2.5372986463249787,-0.27627172962526675,-9.891010241644388,282.3204638922595,-37514.79309223087,0.7478795421672313,957.4229168934594,-3.1389631350610467,1463.351266668744,71.0576923076923,1.9349087551831182e+151,1.0,1.2588726346156986e+147,75.2640738145294,-3.334388870908003e+148
24,2021-10-23 01:28:07.859142,1634945287.9844184,3717790087.984419,-10.0,-11.0,0.0,12.0,0.0,0.0,160.9418806043025,0.0,0.790297770131122,0.0,-0.2863336457769208,0.0,364.71466722884793,-142777.41777615304,0.6321954385569906,60.883402597622094,-3.275579743741022,822.6406595855974,0.0,64.98930481283423,0.0,1.0,0.0,-66.05878661087878
25,2021-10-23 01:30:24.769676,1634945424.895828,3717790224.8958287,-10.0,-11.0,0.0,12.0,0.0,0.0,167.87648011555623,46.964598301784235,0.6735866778730627,1.8053380701527526,-0.29949862328856636,-1.8094704034085367,271.3012528413852,113.91698874303549,0.735415699678651,1.911263606301455,-3.323246627997491,-8.08435667077739,0.0,74.47058823529412,0.0,1.0,0.0,72.97764227642277
26,2021-10-23 01:32:41.534502,1634945561.6580074,3717790361.6580076,-10.0,-11.0,0.0,12.0,0.0,0.0,176.57440422497174,0.0,0.7311696937322548,0.0,-0.2894122151910339,0.0,-35.76194992320167,-40.27785235144812,1.480504938437986,5.57909223334215,-8.846393041299171,-24.35310223514747,-173.72777288843065,0.0,0.6109496983098887,0.0,-12.39923787224124,0.0
27,2021-10-23 01:34:58.328593,1634945698.4718857,3717790498.4718866,-10.0,-11.0,0.0,-8.0,0.0,0.0,195.1762756519729,64.79747323155327,0.713382968260753,1.769705618462499,-0.3007757153241315,-1.5578366065775007,319.7584793577795,180.33619049015675,0.22058722482628354,1.721498000043392,-0.18586674110948936,-8.170166566629264,0.0,79.37433155080214,0.0,1.0,0.0,377.81205211726484
28,2021-10-23 01:37:15.260306,1634945835.3888729,3717790635.3888736,-10.0,-11.0,2.0,-7.0,0.0,0.0,185.6356157402259,-29.552205533641178,0.6907988716828835,5.111038592878388,-0.2596827283013938,-14.529880682469264,105.24762816173059,119.65344084642923,1.2186904809955768,1.9650276229135564,0.6819451365369905,-8.032392213537202,0.0,54.14864383098503,0.0,0.01400219847187606,0.0,-19.270565001087
29,2021-10-23 01:39:31.740506,1634945971.8578076,3717790771.8578086,-10.0,-11.0,2.0,-6.0,0.0,0.0,175.7596826334209,-19.779210416688027,0.6732028463118783,0.9430228056875439,-0.2550156089986174,-7.340433059347969,120.90385269933358,126.8206136078974,1.1762547998591069,1.7951893579193114,0.3435824359660327,-7.937576912742623,0.0,-1.7243364682923067e+164,0.0,2.98485760522227e+159,0.0,-8.212905953785106e+160
30,2021-10-23 01:41:48.597227,1634946108.7340224,3717790908.734023,-10.0,-11.0,2.0,-5.0,0.0,0.0,168.5448509005807,57.756805169281506,0.6531257594116614,1.6555139696796435,-0.28031295169292675,-1.5198683633302221,114.76350393350903,65.85686626428895,1.1768931240034737,0.04759536713695278,0.18452480888519926,-21.508501745467125,0.0,87.22994652406418,0.0,1.0,0.0,-87.13841855739909
31,2021-10-23 01:44:05.440673,1634946245.5666502,3717791045.5666504,-10.0,-11.0,2.0,-4.0,0.0,0.0,146.68622105067124,0.0,0.75528609912744,0.0,-0.30573702577251805,0.0,236.73718654131557,-32640.643553329206,0.23315382018306288,788.4015323236981,-0.1964119738613628,1085.4705602987078,0.0,68.62566844919786,0.0,1.0,0.0,-76.73564305364509
32,2021-10-23 01:46:22.273957,1634946382.3941336,3717791182.394134,-10.0,-11.0,2.0,-3.0,0.0,0.0,196.09236787893084,0.0,0.6509783578884127,0.0,-0.23747889065927305,0.0,350.0329904812441,67.01519553080422,0.25338981475009503,0.323124001359975,-0.19327409421181863,-11.541480152125658,0.0,12621360906.93123,0.0,47644.039211671596,0.0,-299345.07382642693
33,2021-10-23 01:48:39.113623,1634946519.2280731,3717791319.228074,-10.0,-11.0,2.0,-2.0,0.0,0.0,170.9206423599103,-31.97732858846257,0.6753528260811063,7.6731907068765555,-0.27209658103892587,-20.607500409412445,186.22296775545533,-32056.992550919862,0.4452867444165468,803.2326041850159,-0.30986169085465814,1118.4290052516517,0.0,19.691140297082498,0.0,8.425157118342453,0.0,28.67064749150414
34,2021-10-23 01:50:55.909919,1634946656.0305188,3717791456.0305195,-10.0,-11.0,2.0,-1.0,0.0,0.0,180.87441191725674,-32.81882988781326,0.6955058226686192,7.872535744856003,-0.2369557302163079,-21.12359498945571,198.13651480815076,-4819.761800051357,0.48982548076339105,21.593284266589635,-0.4037744355889712,-95.5515918158675,0.0,119.96342808313817,0.0,0.029519021855206995,0.0,-21.500001156768164
35,2021-10-23 01:53:12.747783,1634946792.870831,3717791592.8708315,-10.0,-11.0,2.0,0.0,0.0,0.0,159.1962542326153,-24.090930497599697,0.7562120742816049,2.4584297907487263,-0.3221213686536286,-10.20280531000678,165.40672779949278,121.96017873560959,0.5675635789465189,1.9262782452132492,-0.6195308186054864,-8.106725722961356,0.0,1.4467156347861064e+39,0.0,2.476999058677234e+34,0.0,-3.32521367514336e+35
36,2021-10-23 01:55:29.328089,1634946929.458518,3717791729.4585185,-10.0,-11.0,2.0,1.0,0.0,0.0,-28.740932694651427,48.397372342165816,1.6798229872434587,1.7089730868223156,-5.626514374426943,-1.8518210312499879,189.31113047975785,-191543.8401744903,0.4970863945319047,7.805448405650452,-0.688604670898798,1021.196972995048,0.0,-27723943850.995056,0.0,10754420.779954843,0.0,195437216.7112106
37,2021-10-23 01:57:46.313903,1634947066.438421,3717791866.4384217,-10.0,-11.0,2.0,2.0,0.0,0.0,179.89684988743906,53.24241538443108,0.7104979695274857,1.6920337508417727,-0.3294370226645489,-1.4997605487148218,216.68333966204517,134.99654549430815,0.7363343872952187,1.8197187578673066,-1.1364391969419843,-8.050625164492518,0.0,118.73708340267304,0.0,0.1417488776846292,0.0,-14.481767830839537
38,2021-10-23 02:00:03.076735,1634947203.201134,3717792003.201135,-10.0,-11.0,2.0,3.0,0.0,0.0,195.82269090248886,58.981395781748795,0.7264859649259988,1.9439847773975187,-0.283496630348537,-1.5834967014665318,279.27219618102663,66.8583983654513,0.7022469349919923,0.31025921883616453,-1.2546675607045559,-11.356777315943448,0.0,-1.0414575573227283e+177,0.0,1.431552235534105e+172,0.0,-4.08430329094011e+173
39,2021-10-23 02:02:19.964916,1634947340.0934432,3717792140.093444,-10.0,-11.0,2.0,4.0,0.0,0.0,170.49340373192615,51.99697819872885,0.7429661344809899,1.8812287549656563,-0.34369224268734594,-1.6192066099574935,295.9078229940187,128.32129372637345,0.6760994485364364,1.8848881338659316,-1.309090707756604,-7.937051066576752,0.0,16.998531951984916,0.0,7.664652459052218,0.0,24.881892371535308
40,2021-10-23 02:04:36.811024,1634947476.9395535,3717792276.939554,-10.0,-11.0,2.0,5.0,0.0,0.0,168.55484169233173,47.30033831645821,0.7816305247863607,1.9065437128674863,-0.261814252683811,-1.9745000428885575,289.99531168647604,121.52874222600994,0.6614520869831655,2.083193423348859,-1.442743249174958,-8.153767695533444,-430.1545744860098,-13.410794306450727,0.5810328684088171,5.669200177547302,21.299956689824768,-26.84550041343088
41,2021-10-23 02:06:53.249456,1634947613.4147203,3717792413.4147205,-10.0,-11.0,2.0,6.0,0.0,0.0,14.834285907144372,0.0,0.01263858945300727,0.0,-5.743904925483927,0.0,251.03485928955985,130.9583542588946,0.6767639702531543,1.829627861149212,-1.5552215073146751,-8.15964593094464,0.0,72854.05674106407,0.0,33.14803903591695,0.0,164.13577505915492
42,2021-10-23 02:09:10.255949,1634947750.3773746,3717792550.377375,-10.0,-11.0,2.0,7.0,0.0,0.0,191.8922372351445,54.15831351003077,0.6784737724485922,1.8513936783481608,-0.3059900078806376,-1.9082389941401934,363.1804405450271,-372.611433046206,0.5965708316457793,28.72324589604161,-1.5893467490031454,31.47596945134343,47.59429562821283,40.07813824859717,1.8106897932753319,0.09520682773940217,0.5473879058763845,-30.75838061239546
43,2021-10-23 02:11:26.966950,1634947887.0928757,3717792687.0928764,-10.0,-11.0,2.0,8.0,0.0,0.0,183.1420690249529,-21.46261798625444,0.66289797861205,2.14579622746795,-0.28617576743616274,-9.233213677456888,300.5053814852752,40.779149351462706,0.6489587442229154,0.34925675475512785,-1.7122588213873713,-11.385415326726317,0.0,21604.663809819336,0.0,32.08109249784624,0.0,149.44084192314784
44,2021-10-23 02:13:43.888953,1634948024.0153189,3717792824.01532,-10.0,-11.0,2.0,9.0,0.0,0.0,151.85669197109223,44.1606900085105,0.8057029054063702,1.8508415765945698,-0.30156890609417186,-1.5105354358591816,338.0300763931259,118.86645219519225,0.6011431951915325,1.8473087645039135,-1.7523212511543422,-7.901503069986808,0.0,2.369381358182204e+37,0.0,6.612012900562621e+31,0.0,-2.752718034925991e+34
45,2021-10-23 02:16:00.672885,1634948160.7900598,3717792960.7900605,-10.0,-11.0,2.0,10.0,0.0,0.0,194.48782541878504,51.85423181146456,0.6964091413555843,1.8855639955591676,-0.29164824382216425,-1.7692853579987968,461.45706584363023,1.1132338170175478,0.577986464735165,0.17067738034419816,-1.8497978932577646,-13.690451385157937,0.0,14852210190.531666,0.0,1820598.3839190032,0.0,-12128923.408444872
46,2021-10-23 02:18:17.490044,1634948297.6088586,3717793097.608859,-10.0,-11.0,2.0,11.0,0.0,0.0,159.5675134125844,0.0,0.7213932256269767,0.0,-0.2535858159194761,0.0,251.1008967490924,-31164.68314157277,0.8947568281798164,744.3705789869548,-2.2041019853891606,981.4451963332502,0.0,-5.101335702377079e+256,0.0,5.481573171940662e+251,0.0,-1.8863539229733844e+253
47,2021-10-23 02:20:34.063503,1634948434.1988215,3717793234.198822,-10.0,-11.0,2.0,11.0,0.0,0.0,174.6151918939403,51.47558023845341,0.7248126340726214,1.913522244954031,-0.29014311483211414,-1.778558394223535,261.9286787445346,66.60283922178957,0.8613691802759601,0.3531496737464319,-2.240674444124596,-11.45987076365835,0.0,1132198996.3444262,0.0,21349.863927002614,0.0,-119054.02472967858
48,2021-10-23 02:22:51.148969,1634948571.2719564,3717793371.271958,-10.0,-11.0,2.0,11.0,0.0,0.0,146.76014187193368,-28.75905841524824,0.7646184366838706,7.208530672121945,-0.33344141122592935,-19.550719880359903,243.42974748394698,58.53144228326779,0.9038027817733425,0.3384749513059351,-2.3774567149195707,-11.485156659835736,0.0,123.45471901654577,0.0,0.615017073257981,0.0,15.440580312165498
49,2021-10-23 02:25:07.734387,1634948707.86344,3717793507.8634415,-10.0,-11.0,2.0,11.0,0.0,0.0,180.45736653629191,51.69137655993033,0.7033132271922651,1.878111660731142,-0.24183922423701038,-1.7963889517186005,291.91285452080604,-41753.29290610968,0.8014264907196057,932.2650239306605,-2.4454736643567574,1354.1692681438196,0.0,62.70053475935829,0.0,1.0,0.0,118.99738082765784
50,2021-10-23 02:27:24.573050,1634948844.705464,3717793644.705465,-10.0,-11.0,2.0,11.0,0.0,0.0,173.32554866475132,46.14640609645837,0.7198789641338805,1.8854956826923228,-0.2951642368277494,-1.5137017452496664,268.0482248464878,129.06373284228138,0.8663919992346573,1.7577013439845905,-2.515469402323138,-8.123205468512827,0.0,-63782.678683478305,0.0,187.6520567912911,0.0,1794.4939805931392
51,2021-10-23 02:31:58.360272,1634949118.4849257,3717793918.484929,-10.0,-11.0,2.0,11.0,0.0,0.0,177.33012900986722,-22.91508487198452,0.7103415076254556,2.108268929228453,-0.29759496806043506,-9.24984320828118,297.79439325598906,132.8354846991612,0.8047956203053027,1.7834525606177574,-2.650843034470742,-8.025802525002852,0.0,-71024.11542520612,0.0,190.99036299729485,0.0,1807.0376570058131
52,2021-10-23 02:34:15.106900,1634949255.232344,3717794055.2323446,-10.0,-11.0,2.0,11.0,0.0,0.0,173.50017438963198,44.66970865917113,0.7258086425935825,0.000977623525085125,-0.2746780302286341,-15.396755926688172,279.8408889274051,-39.11731417633262,0.8245404606208183,5.901442189168102,-2.731466996289039,-24.968739147396764,0.0,-1.6236438973258142e+234,0.0,1.899751747283885e+229,0.0,-6.2427569699632345e+230
53,2021-10-23 02:36:31.748538,1634949391.8804862,3717794191.8804874,-10.0,-11.0,2.0,11.0,0.0,0.0,174.9113378608554,-22.983324041014615,0.7058222888844883,2.0444547337029224,-0.2649034777974667,-8.907256820121422,321.02588722363265,113.90057103918565,0.6862158142255932,1.9657979842497741,-3.0608455311910636,-7.951101344461914,0.0,67.00534759358288,0.0,1.0,0.0,741.1562499999742
54,2021-10-23 02:38:48.625170,1634949528.7443006,3717794328.7443013,-10.0,-11.0,2.0,-8.0,0.0,0.0,173.68219094394271,47.017024224019586,0.7242435876658359,1.9751285963204828,-0.33034578467648734,-1.5030084838742261,109.85016429809095,119.10230682560054,1.176441243038382,1.99061060245397,0.9360193469935636,-8.000755750602153,0.0,79.70588235294119,0.0,1.0,0.0,-76.04168012924063
55,2021-10-23 02:41:05.491194,1634949665.621281,3717794465.6212816,-10.0,-11.0,4.0,-7.0,0.0,0.0,177.3198218646524,41.75981911405454,0.6572978311836349,0.08438567116616613,-0.22015382364818553,-9.812369423593308,404.13442526927275,-77895.07565935093,0.3101591878420151,181.12636887281326,1.8359878292606695,182.2839279545275,0.0,47283396.03051942,0.0,17563.769828042135,0.0,-88717.28089377058
56,2021-10-23 02:43:22.373593,1634949802.4960063,3717794602.496007,-10.0,-11.0,4.0,-6.0,0.0,0.0,169.44912460146918,-18.57004619168813,0.6879623134455587,1.0038684490127343,-0.27487342542684523,-6.884565061447832,326.5974463233852,-64327.5637340439,0.3441671782736825,1125.8630799304685,1.7905748618457045,1934.4263565746294,43.11497156237907,74.61764705882354,1.9403987217230445,1.0,3.3664195413978297,-69.32111345843177
57,2021-10-23 02:45:39.090890,1634949939.2076855,3717794739.207686,-10.0,-11.0,4.0,-5.0,0.0,0.0,185.25848880620603,217.21809654471943,0.7309284906709161,0.03237811434735183,-0.2605414546984783,-9.124767018302823,326.33202979844674,152.9517843648373,0.30685238753171656,1.6331652505306562,1.7855486671374083,-8.011417862576986,48.85065697635941,114.32349494476051,1.772262090129332,0.017962835634056318,3.250687191333778,-18.567715098589165
58,2021-10-23 02:47:56.008547,1634950076.1352587,3717794876.135259,-10.0,-11.0,4.0,-4.0,0.0,0.0,49.55748610733928,0.0,0.7895641794973006,0.0,-0.27006665880127056,0.0,-12.082677090167785,52.00666666666666,0.7266174297378486,1.0,-3.0875225486040168,-85.3099315068494,0.0,0.0,0.0,0.0,0.0,0.0
59,2021-10-23 02:50:12.664148,1634950212.790425,3717795012.790426,-10.0,-11.0,4.0,-3.0,0.0,0.0,183.109041967642,17.868191268698865,0.7030375629894599,0.0051303702831560286,-0.3014341794921204,-7.217769175805646,123.53929758210404,87.30657098503036,1.1352954045828532,0.3325022198882857,0.7845250679176247,-11.514790288170971,53.739676776121925,-3.252118494048946e+24,1.4186290082558428,3.908673096491101e+20,2.985835159024054,-1.3876425383589513e+22
60,2021-10-23 02:52:29.309856,1634950349.4396374,3717795149.439638,-10.0,-11.0,4.0,-2.0,0.0,0.0,175.62139313242767,56.781035294624694,0.6928097665224914,1.8623294434842588,-0.356112904467225,-1.3682866202381683,112.18112170164027,127.37177373101206,1.1406433334272257,1.8518535724713616,0.4600230108807617,-8.152708792454433,0.0,-4.168204821529519e+227,0.0,2.079515450021965e+222,0.0,6.881588617702577e+223
61,2021-10-23 02:54:46.203942,1634950486.331747,3717795286.3317475,-10.0,-11.0,4.0,-1.0,0.0,0.0,193.31220888261907,53.02552579246991,0.6673510842956965,1.7977332388051341,-0.24489898465045462,-1.6885870306317352,2014.8340211090779,138.80477736381656,0.10964044991051025,1.849944226966459,-0.22494407550616421,-8.216816336196684,44.82783943341463,267.23451003623563,2.043395503668532,0.07406725869023106,3.136826981324155,-30.99151335237468
62,2021-10-23 02:57:03.045698,1634950623.166421,3717795423.166422,-10.0,-11.0,4.0,0.0,0.0,0.0,170.25655310760047,-14.210006535934662,0.6883427562393148,1.2633961953044353,-0.34253138529265365,-6.9378125820685295,1987.8017777847435,-36.33315566313656,0.1093391552313752,5.847353399168963,-0.2261173188100471,-25.85659624397431,0.0,4.667139884523209e+279,0.0,1.5083420670050782e+274,0.0,1.0590147345136633e+276
63,2021-10-23 02:59:19.936892,1634950760.0541632,3717795560.054164,-10.0,-11.0,4.0,1.0,0.0,0.0,177.99313481922945,50.29019230901842,0.7316652092083569,2.0629262472083294,-0.27347064832534396,-1.1658808752705268,269.6609710794861,-17.634892699194687,0.2778809010156269,0.46533758005117426,-0.19321811586667131,-14.70241949123931,0.0,76.1951871657754,0.0,1.0,0.0,520.827217125386
64,2021-10-23 03:01:36.717705,1634950896.8500938,3717795696.8500943,-10.0,-11.0,4.0,2.0,0.0,0.0,183.86856725870075,0.0,0.7298168450653018,0.0,-0.25155430345087504,0.0,264.3617822997798,129.8927016037252,0.31273264707517034,1.8791881346761101,-0.20607598298742957,-8.03785216132531,0.0,25.680900132619136,0.0,0.3360027389115662,0.0,-11.624108814650931
65,2021-10-23 03:03:53.378899,1634951033.5083594,3717795833.50836,-10.0,-11.0,4.0,3.0,0.0,0.0,108.81113649515902,0.0,0.706068201015582,0.0,-0.3614709130810289,0.0,111.9506516426892,87.72281227312423,0.5328237027304804,2.1144457586017453,-0.4295040321890134,-8.171002702858411,0.0,92.06776987305197,0.0,0.6130145548304368,0.0,12.625071189879643
66,2021-10-23 03:06:10.122297,1634951170.2557607,3717795970.255762,-10.0,-11.0,4.0,4.0,0.0,0.0,200.12769035811417,-12.285271147073315,0.6099282519103846,0.0275162312686145,-0.2677628137923863,-7.503112410409037,209.18329591270867,154.15631812683577,0.5222311399018479,1.7137564492259711,-0.508168877981437,-8.153350161577112,0.0,7.508374399131025e+87,0.0,2.5768351360884276e+83,0.0,-8.505369015779751e+84
67,2021-10-23 03:08:27.129545,1634951307.2609365,3717796107.260937,-10.0,-11.0,4.0,5.0,0.0,0.0,74.07187452402884,0.0,0.709105683893537,0.0,-0.15436116172624553,0.0,78.91635379393244,-1.7623910723541305e+275,0.5589198074011004,2.1871298442787483e+270,-0.7095872232977195,-7.793605013035644e+271,0.0,67.93084059419871,0.0,0.10477181130224991,0.0,7.761352241306574
68,2021-10-23 03:10:43.920201,1634951444.0411053,3717796244.041111,-10.0,-11.0,4.0,6.0,0.0,0.0,171.36287704952215,53.283759137629,0.7438771581558343,1.7107139964438232,-0.2703504434044304,-1.8243724252726945,198.51775694688104,-9522.254300731067,0.7637556458638718,0.8101658599597147,-1.0428860140487948,-17.00561717714867,0.0,44.98414467393286,0.0,0.05072892724428901,0.0,-27.673240410795025
69,2021-10-23 03:13:00.715886,1634951580.8355875,3717796380.8355923,-10.0,-11.0,4.0,7.0,0.0,0.0,178.4196762430363,0.0,0.6664539436773563,0.0,-0.24041543200967713,0.0,207.88512929342545,-44.057959698304934,0.7170430613992843,5.949726236158695,-1.121770496350892,-26.76444357901739,0.0,73.20176188421907,0.0,1.3108413996867587,0.0,-8.531135066123738
70,2021-10-23 03:15:17.549213,1634951717.6741536,3717796517.6741543,-10.0,-11.0,4.0,8.0,0.0,0.0,165.47961610760265,49.80132980179614,0.741834765581057,2.076776776672958,-0.2632296783007266,-1.5757355110388904,241.25211251138762,118.79118299235256,0.736845745072597,1.9158973390343632,-1.2583313767134314,-7.921589699592416,0.0,127.34754716187548,0.0,0.023551056070492182,0.0,-15.52601559140965
71,2021-10-23 03:17:34.249786,1634951854.3706172,3717796654.370618,-10.0,-11.0,4.0,9.0,0.0,0.0,188.91566066823822,0.0,0.6944812343356548,0.0,-0.2491196636578471,0.0,270.3160230635622,-87.2040381353205,0.694797659098042,0.3026237559637896,-1.346776138742171,-13.342662223886963,42.2997304179955,22.8399665406684,5.035171633599092,0.07945713791337092,4.371897260625387,-25.090947246061486
72,2021-10-23 03:19:51.004262,1634951991.1306965,3717796791.1306973,-10.0,-11.0,4.0,10.0,0.0,0.0,128.51428708052816,39.192380163452604,0.764470319688164,1.8390500783624573,-0.23677653124995443,-1.3860672191845083,185.05218960993653,-34.69053961741356,0.7361021649183415,5.847696410638366,-1.4231125619931706,-25.310314462932837,0.0,62.17379679144385,0.0,1.0,0.0,-133.39620566400853
73,2021-10-23 03:22:07.801893,1634952127.9289806,3717796927.9289813,-10.0,-11.0,4.0,10.0,0.0,0.0,140.91384868242204,0.0,0.6631575140575666,0.0,-0.3068458052976518,0.0,285.5124137458541,-35023.99559891471,0.5934153242049767,24.839509786353382,-1.5386766498519218,-120.8174150006399,0.0,175349.64910187345,0.0,37.85583396705823,0.0,192.2143774486184
74,2021-10-23 03:24:24.744103,1634952264.8685732,3717797064.868574,-10.0,-11.0,4.0,10.0,0.0,0.0,176.6803854201425,55.46579384012452,0.7070674667350288,1.7768803202276084,-0.3017338904959797,-1.3969920633762898,432.072063544219,136.13949995656517,0.5710986752682374,1.71677043599612,-1.6097021886528466,-8.034533989368002,0.0,65.20588235294119,0.0,1.0,0.0,-478.04431540342046
75,2021-10-23 03:26:41.519266,1634952401.6443892,3717797201.644393,-10.0,-11.0,4.0,10.0,0.0,0.0,184.35802024805076,-16.477600421154868,0.640392599975951,1.0677006902128183,-0.31035015272521105,-6.680642402856148,376.24277316094265,48.2221891655569,0.5801414546896175,0.3580735418806979,-1.7096035299932033,-11.376298548367245,0.0,46534991515.85441,0.0,15558776.507877005,0.0,-109834607.25161035
76,2021-10-23 03:28:58.368184,1634952538.4912224,3717797338.491223,-10.0,-11.0,4.0,10.0,0.0,0.0,207.75662798378087,60.11658413300092,0.631452028533573,1.6861921718059647,-0.23765651350809386,-2.262231638175665,415.18053709990505,152.40155770405065,0.5984902745108315,1.636900197919603,-1.7955308690795997,-8.14447737212516,48.81926759835972,-7.035793444263448,1.8151617019902686,0.010952287858867663,0.5797334015338393,24.500132173085156
77,2021-10-23 03:31:15.089669,1634952675.2088087,3717797475.2088094,-10.0,-11.0,4.0,10.0,0.0,0.0,172.50099862425606,-18.88640176711257,0.6976748525405198,1.187196486851843,-0.29887385784905646,-6.643530948536904,337.52141513021394,130.03870298579136,0.6759231490361163,1.781050297233081,-1.9198959588289153,-8.138203884786808,0.0,17.497334637833895,0.0,8.642912488715835,0.0,27.593996388780425
78,2021-10-23 03:33:31.679740,1634952811.818579,3717797611.8185797,-10.0,-11.0,4.0,10.0,0.0,0.0,-20.61484687243594,37.40067064302679,1.6556181133135495,1.7774511818959224,-5.799339439742364,-1.4633985549692399,412.3022360389936,96.91382651756237,0.4819990442985791,1.9386121849561309,-1.8564386755530717,-8.070770355154464,0.0,0.0,0.0,0.0,0.0,0.0
79,2021-10-23 03:35:48.571604,1634952948.702814,3717797748.702815,-10.0,-11.0,4.0,10.0,0.0,0.0,184.46247114188202,0.0,0.6555118902888205,0.0,-0.2687553210715698,0.0,259.76812087085233,80.15394495060568,0.8263427328518409,0.3319071725124418,-2.3021746553675477,-11.540350014855118,0.0,17.005979481339487,0.0,0.3147268561515663,0.0,-14.569212745182181
80,2021-10-23 03:38:05.357664,1634953085.4851146,3717797885.485115,-10.0,-11.0,4.0,10.0,0.0,0.0,148.3847267953171,43.309426688315796,0.7751961300349971,1.9612920252662749,-0.28371132946714156,-1.8757126608746137,268.74394899936976,341.8690906483149,0.8542755003482059,0.4745711095100621,-2.445180829931191,-18.422396436672702,0.0,16.67372913698811,0.0,7.04803140371487,0.0,24.10904052922563
81,2021-10-23 03:40:22.198948,1634953222.3372736,3717798022.3372746,-10.0,-11.0,4.0,-8.0,0.0,0.0,133.84277690467312,0.0,0.8212849642512429,0.0,-0.3166730590598913,0.0,282.0580091217533,-38.42193449774469,0.43109511422372354,5.359608172261956,1.7846905280357321,-27.086643092032094,0.0,4.424315434069293e+23,0.0,1.058711070478268e+19,0.0,-7.606773695053819e+20
82,2021-10-23 03:42:39.023746,1634953359.139626,3717798159.1396265,-10.0,-11.0,6.0,-7.0,0.0,0.0,202.29897467311054,0.0,0.6970837175219021,0.0,-0.3358774456422038,0.0,343.99044721439884,-120699.10008751937,0.5102672755479942,197.90022482205083,1.85128519788072,199.10746865206764,49.78233894862354,-16.11683235165267,1.701613488356168,5.803813691020943,5.150597477266672,-26.81579177616266
83,2021-10-23 03:44:55.998540,1634953496.1228917,3717798296.1228924,-10.0,-11.0,6.0,-6.0,0.0,0.0,177.0730353879945,51.01204179263443,0.6710317950311864,1.9664744922530268,-0.23013264121968705,-1.566478943545259,353.135845604468,121.07239270852641,0.4754946824331661,2.054411113004334,1.8554055071724744,-8.048839529046612,0.0,77.52941176470588,0.0,1.0,0.0,-86.78792134831475
84,2021-10-23 03:47:12.765881,1634953632.8981028,3717798432.898107,-10.0,-11.0,6.0,-5.0,0.0,0.0,174.7788082046559,-24.77249691120688,0.6884408884680652,2.882600651011646,-0.2129579240960827,-10.681938881583212,337.0576439159331,126.20285718622867,0.46444436470048983,1.8248360763535652,1.765788495784008,-8.038018675887393,0.0,2.4042013656723247e+24,0.0,2.778215757244033e+21,0.0,-2.990325700141318e+22
85,2021-10-23 03:49:29.297179,1634953769.4191306,3717798569.4191313,-10.0,-11.0,6.0,-4.0,0.0,0.0,192.71521423449533,-18.14907598861713,0.6454898404196897,1.2437487550691575,-0.19799446445545316,-7.137071155202967,381.2955554407601,126.25789123375179,0.390602895942134,1.8759127701006795,1.7734320869823244,-8.147330873630453,0.0,69.70588235294119,0.0,1.0,0.0,-312.69752475247503
86,2021-10-23 03:51:46.144500,1634953906.2800272,3717798706.280031,-10.0,-11.0,6.0,-3.0,0.0,0.0,147.0953708671541,-20.957070903136582,0.7704462106559459,1.9079289840443379,-0.272762149090185,-8.80789962763534,313.80579960944937,57.57767019621829,0.3635933045637626,0.014852903063162948,1.8023323139066798,-18.656906775409634,0.0,57.16577540106952,0.0,1.0,0.0,90.55324211778695
87,2021-10-23 03:54:02.930403,1634954043.0756986,3717798843.0757036,-10.0,-11.0,6.0,-2.0,0.0,0.0,163.41792007696583,52.773463412668306,0.6981234639641746,1.9339935072258452,-0.27086285356451434,-1.576825114914939,282.4538078370622,98.37085732665521,0.37915759580579783,0.3310360054166012,1.7769509187021373,-11.513252290317864,0.0,4.83075172845053e+223,0.0,4.748307366517017e+218,0.0,-3.31349454069825e+220
88,2021-10-23 03:56:19.859327,1634954179.9770834,3717798979.977088,-10.0,-11.0,6.0,-1.0,0.0,0.0,180.02943478997477,-21.850601712454107,0.6828383961616246,2.040214655809435,-0.24537238393114408,-8.72018911821802,331.9494963527932,-40.83246704124945,0.32531778243745485,5.528102369372008,1.7797619871565171,-24.38118836411856,0.0,15.27518442017111,0.0,7.487687594908207,0.0,26.067291488917004
89,2021-10-23 03:58:36.651212,1634954316.77994,3717799116.7799406,-10.0,-11.0,6.0,0.0,0.0,0.0,100.07989277881018,0.0,0.822887955748373,0.0,-0.2071230643835519,0.0,76.65273661279672,58.441210106018815,1.0920750448627636,0.33658025989009305,1.170946377525855,-11.506746534613908,0.0,16.164433337800876,0.0,7.71912482239033,0.0,27.336106820178028
90,2021-10-23 04:00:53.475287,1634954453.602842,3717799253.602843,-10.0,-11.0,6.0,1.0,0.0,0.0,169.1195962944809,15.160023411401713,0.6595067725592071,0.01772427302114931,-0.21549797308959406,-7.754833487823795,117.25279109481974,-44.51345065506354,1.0993268910714729,5.641864840567319,1.0024652390992819,-25.473264044869463,53.75727652254773,83.73529411764706,1.610851724420506,1.0,5.035025095049689,94.8397156398105
91,2021-10-23 04:03:10.361505,1634954590.4888165,3717799390.488817,-10.0,-11.0,6.0,2.0,0.0,0.0,183.53386097941478,-29.84611060559763,0.647012628746006,5.634946811908289,-0.34870883490840815,-16.448448841570105,112.970773920949,65.79656204243535,1.1730861861356234,0.18483455241585622,0.7077863086199117,-17.958841029513152,0.0,8.723359218913,0.0,0.24266109386559293,0.0,-26.45045439805171
92,2021-10-23 04:05:26.860609,1634954726.999085,3717799526.9990864,-10.0,-11.0,6.0,3.0,0.0,0.0,166.14062438561632,-22.914125176757228,0.73004712764011,1.8273579635889268,-0.24635528889672031,-8.935688800312938,104.97164078576682,73.18567418465477,1.1475974262502597,0.32438904635934923,0.3550954337171428,-11.497785260681892,0.0,1.7466643327419566e+253,0.0,4.496942879024207e+248,0.0,-2.4078040032634312e+250
93,2021-10-23 04:07:43.697909,1634954863.8268712,3717799663.826872,-10.0,-11.0,6.0,4.0,0.0,0.0,170.3782949897235,-21.28319177911069,0.5944090696457427,2.499511941220034,-0.30903473725837155,-9.890881445660787,1786.0881733927117,54.56417305497964,0.10822235096540302,0.1245617112492272,-0.22233864737120332,-10.814500203092058,0.0,-1.3658055799970346e+20,0.0,1.6177921687128152e+16,0.0,-1.5716673135356256e+17
94,2021-10-23 04:10:00.575332,1634955000.706963,3717799800.7069635,-10.0,-11.0,6.0,5.0,0.0,0.0,170.33008368990085,-23.696883802867507,0.6767101935530814,2.0666287525460345,-0.2748317144384831,-9.432811781532838,1841.9846919472482,80.42048307416258,0.10973550921955758,0.32577568472124646,-0.22689971793785937,-11.516296741319408,46.73137347354458,31.237713202656263,1.7029489806358702,0.034138062633470745,4.730423313058098,-26.914189362581702
95,2021-10-23 04:12:17.544232,1634955137.6757598,3717799937.6757607,-10.0,-11.0,6.0,6.0,0.0,0.0,176.72784286029565,48.468287909280036,0.6460499069601574,1.7664722909821027,-0.2674836357922593,-1.5708840771581392,284.383524523819,133.728132737023,0.23093056346204002,1.7230119528270191,-0.1837646929938591,-7.993966142551836,0.0,79.52941176470588,0.0,1.0,0.0,836.5492957746363
96,2021-10-23 04:14:34.235425,1634955274.350226,3717800074.350227,-10.0,-11.0,6.0,7.0,0.0,0.0,207.97948698172524,57.094753426879016,0.6467012042293189,1.905587229228458,-0.3013461365657261,-1.854631003588745,264.63953640180455,145.02647969473196,0.33958158435478086,1.7979219188874607,-0.2086922250169291,-8.105122456800549,0.0,-18.58964877568297,0.0,5.538840670843327,0.0,-25.957695279998262
97,2021-10-23 04:16:51.195449,1634955411.327717,3717800211.327718,-10.0,-11.0,6.0,8.0,0.0,0.0,180.05223806613552,51.8157435906417,0.7126822212827305,1.8014999157485627,-0.36501383764491324,-1.311956800763766,193.94038052817413,-40.00781354623506,0.4824603490123381,5.888096142819407,-0.36226923626355184,-24.810672259584287,0.0,-1564718.188201819,0.0,370.74935952532314,0.0,20126.825831213377
98,2021-10-23 04:19:07.920886,1634955548.0505364,3717800348.050537,-10.0,-11.0,6.0,9.0,0.0,0.0,160.90086783090945,49.04209830830102,0.6829045707909714,1.7472050136620836,-0.24380393781482848,-1.4423547344180812,167.04203905867112,131.16142516547023,0.6177135732326879,1.741278708672751,-0.5451392411891439,-7.993447747064814,44.6789273196987,56.53475935828877,1.6845252037002716,1.0,5.072332427960112,108.32863082863112
99,2021-10-23 04:21:24.467901,1634955684.5997303,3717800484.5997305,-10.0,-11.0,6.0,9.0,0.0,0.0,93.02269854950924,0.0,0.8421097141826102,0.0,-0.2571340430643668,0.0,96.3943665922285,3.661077322983262e+214,0.5964251982667109,5.122664207438489e+209,-0.6508979801121462,1.6116240758376204e+211,0.0,-8.488022351626038,0.0,1.2710506478903738,0.0,6.027826152129377
100,2021-10-23 04:23:41.408081,1634955821.5371828,3717800621.5371833,-10.0,-11.0,6.0,9.0,0.0,0.0,164.11802587761426,0.0,0.7254405383097419,0.0,-0.1904546968446195,0.0,175.93484683007128,-9.625263833601169,0.7249065454490723,0.3960856248666174,-0.9496213213269992,-14.02143273914855,0.0,79.47593582887701,0.0,1.0,0.0,-67.0859137406689
101,2021-10-23 04:25:58.160478,1634955958.2886589,3717800758.2886596,-10.0,-11.0,6.0,9.0,0.0,0.0,132.11768174759356,0.0,0.8097735420285146,0.0,-0.3080205889727489,0.0,165.99723224237846,149.25884610044503,0.7829064280174634,0.04910327841991017,-1.122716602361111,-26.830575079905255,0.0,49.55080213903743,0.0,1.0,0.0,186.3038532961927
102,2021-10-23 04:28:15.083898,1634956095.209372,3717800895.2093735,-10.0,-11.0,6.0,9.0,0.0,0.0,167.07452865440519,49.4207077336063,0.7006558431624537,1.7087593698733825,-0.31194609331130096,-1.4457490378965885,195.99416225595715,112.31989794512918,0.6936197438819204,0.021421912041393598,-1.224510508728704,-18.53382592751315,0.0,1885119761285145.8,0.0,1056708493492.4591,0.0,-9185617657495.475
103,2021-10-23 04:30:31.889945,1634956232.0225675,3717801032.022568,-10.0,-11.0,6.0,9.0,0.0,0.0,127.84737273139852,0.0,0.6699317662240637,0.0,-0.32504775595993707,0.0,228.82388547691335,90.35523904509982,0.6269555301727721,2.068336151881859,-1.4186944009824514,-7.875529283373726,0.0,2.51161158257139e+162,0.0,4.2201992748896144e+157,0.0,-1.6233884221072111e+159
104,2021-10-23 04:32:48.686173,1634956368.8134022,3717801168.813403,-10.0,-11.0,6.0,9.0,0.0,0.0,157.0075584169369,0.0,0.6573373477427743,0.0,-0.24011949418938072,0.0,266.64982724716145,47.435931598556365,0.6321276111399461,0.31045701815018767,-1.5433546478624878,-11.405466768630102,0.0,50.794117647058826,0.0,1.0,0.0,161.18355571583132
105,2021-10-23 04:35:05.267436,1634956505.388127,3717801305.3881273,-10.0,-11.0,6.0,9.0,0.0,0.0,157.9583598157894,0.0,0.7249437014991224,0.0,-0.19709218880807663,0.0,288.8653397982789,114.05544664157688,0.6258622632717796,0.01796259477284648,-1.5634303429409935,-19.03409999118789,0.0,-4.2662815926058295,0.0,0.24196702676276438,0.0,10.846572641755742
106,2021-10-23 04:37:22.218294,1634956642.352027,3717801442.3520303,-10.0,-11.0,6.0,9.0,0.0,0.0,181.6492248526046,48.109684660276464,0.6582411829456662,1.8695096826768058,-0.23519773515318879,-1.5222574768982537,374.4276266439821,-11.839345605524288,0.5876583511716212,0.3856804771004297,-1.6805123727138185,-14.232144147641392,0.0,12.64073369918329,0.0,1.6225207038385532,0.0,23.173877584267338
107,2021-10-23 04:39:39.128309,1634956779.2716622,3717801579.2716665,-10.0,-11.0,6.0,9.0,0.0,0.0,139.81667105839333,-20.51037034394453,0.7247792873317419,2.032198667471809,-0.2633571688126738,-8.986577065466795,344.5471638249766,-32.80804357978519,0.5822670520807366,0.2542547832598384,-1.7481099555967035,-13.466839660665716,31.73411603061547,17.670389124754916,1.725292288873763,7.17602077452123,1.272718786617907,23.270646765115305
108,2021-10-23 04:41:55.900794,1634956916.0194001,3717801716.0194035,-10.0,-11.0,6.0,-8.0,0.0,0.0,160.4764473047606,52.663125430115244,0.7131208581961263,1.9534907438808427,-0.2258579166175802,-1.2850110009496698,326.9070188503964,146.8796354392274,0.5272311066621458,1.6984115389456573,1.9115253961449337,-8.086039471321874,0.0,66.31550802139037,0.0,1.0,0.0,-86.03332377127586
109,2021-10-23 04:44:12.656922,1634957052.7905507,3717801852.7905545,-10.0,-11.0,8.0,-7.0,0.0,0.0,168.50683742888805,-18.84669825693522,0.766993041296557,1.1292830141093826,-0.25320147135719817,-7.253853865827273,227.6537235890581,138.49162876334825,0.6760099558320252,1.7586353123905112,2.276312890422878,-8.16127784740605,0.0,-1.0120663319607862e+32,0.0,2.289685931502784e+27,0.0,-6.548787863956705e+29
110,2021-10-23 04:46:29.537382,1634957189.6698952,3717801989.669899,-10.0,-11.0,8.0,-6.0,0.0,0.0,161.10845317538582,-17.955455399008382,0.665306836605874,1.7100833989259778,-0.17411439143417717,-8.474636118475527,199.67325427882443,126.2885279973168,0.6694925450490097,1.6698858420417957,2.1824662169509272,-8.226716345236916,0.0,1.2174974301478257e+18,0.0,64360999287296.86,0.0,-605913072907026.1
111,2021-10-23 04:48:46.082233,1634957326.2140594,3717802126.2140603,-10.0,-11.0,8.0,-5.0,0.0,0.0,170.74290056422907,-26.643945457249785,0.694673642540568,1.9995502352963932,-0.3037132081996404,-9.044468171868095,253.56316164768052,-40.754304167423854,0.6176459027807664,5.662354750923367,2.0388028860950858,-24.875827177091466,0.0,71.7620320855615,0.0,1.0,0.0,121.00137931034423
112,2021-10-23 04:51:02.874122,1634957463.00557,3717802263.0055704,-10.0,-11.0,8.0,-4.0,0.0,0.0,176.5241013436481,64.25740473685902,0.6594673873287104,1.7592147693748077,-0.295144855122464,-1.651764316443809,299.1745722341072,-48986.00059414081,0.548015166397837,1031.8999971405708,1.9607529327046573,1625.7035066672265,0.0,-18.707797966994455,0.0,5.752211852867373,0.0,-27.324862649739472
113,2021-10-23 04:53:19.705507,1634957599.830937,3717802399.8309402,-10.0,-11.0,8.0,-3.0,0.0,0.0,152.18377071004392,-25.53357172116876,0.7220696697990824,7.0043105332261675,-0.30520517531303587,-19.352942744314305,262.8850245135221,-46658.51294903798,0.551464302481562,952.0243746651221,1.8909665741240878,1493.3597091557594,0.0,117951.3823256046,0.0,29.941571666254255,0.0,153.1984926432423
114,2021-10-23 04:55:36.544309,1634957736.6794705,3717802536.679471,-10.0,-11.0,8.0,-2.0,0.0,0.0,-14.380713963578469,0.0,1.627406417810633,0.0,-5.680282260656048,0.0,126.75410266836231,-1.1613829769249898e+74,0.5150786992774524,1.4192668783106456e+69,1.8600104374016728,-2.6427792675598918e+70,-13.616670756300831,0.0,2.7789219026092695,0.0,-1.3371876395563387,0.0
115,2021-10-23 04:57:53.461753,1634957873.589149,3717802673.58915,-10.0,-11.0,8.0,-1.0,0.0,0.0,187.91753441116495,57.10747010977363,0.6832936319846071,1.9823676211235468,-0.2685414826047695,-1.7230137428918693,351.745094300624,40.6869142394513,0.45178062941608754,0.19662874801861743,1.7959258152852853,-11.195394175457514,51.343207035431696,68.6283422459893,1.7568019686281782,1.0,6.67307657025285,-85.45808429118765
116,2021-10-23 05:00:10.243664,1634958010.3725429,3717802810.3725476,-10.0,-11.0,8.0,0.0,0.0,0.0,192.07454150071894,-22.13021918079422,0.6731184667502168,1.1252712103295277,-0.2609326197641707,-6.838263111967385,345.3549503804618,146.19056353749355,0.4432661094337305,1.7743943716883435,1.7812536964204924,-7.894870973464303,0.0,118.18002900486671,0.0,0.018233068640218897,0.0,-18.727656615128566
117,2021-10-23 05:02:27.042864,1634958147.1738126,3717802947.173814,-10.0,-11.0,8.0,1.0,0.0,0.0,178.03044127546573,-23.127326984577806,0.6492772607874864,1.9558057135059035,-0.32493834785325165,-8.66982825577435,340.3704002430929,145.04069926108707,0.3778018099211945,1.755304035185452,1.798493122471932,-8.093644205805283,52.932910989536296,78.27272727272728,1.4386875389350924,1.0,6.342120126173352,89.35474006116225
118,2021-10-23 05:04:43.914986,1634958284.0462337,3717803084.046235,-10.0,-11.0,8.0,2.0,0.0,0.0,-26.307864305133194,0.0,1.6359355240400195,0.0,-5.628579679557831,0.0,371.0029362594452,80.44051630444609,0.3276171236424455,0.001995032653561102,1.8446937321591572,-22.061740123493546,0.0,125.11580812967486,0.0,0.027256898282328034,0.0,-20.28388628163701
119,2021-10-23 05:07:00.820147,1634958420.9382882,3717803220.9382887,-10.0,-11.0,8.0,3.0,0.0,0.0,187.30826697135234,60.77261958080033,0.6954493583855349,1.8417640539359927,-0.202381607390074,-1.4524552979959584,356.42394685802424,127.29067589467478,0.3413807937802773,1.8788237373162886,1.7683260004305872,-8.029251841948746,-95.90175123769929,1.770867390720118e+105,1.4688242911745464,2.3654687955530143e+100,14.043618959690301,-5.287458086453472e+101
120,2021-10-23 05:09:17.694087,1634958557.8294685,3717803357.8294687,-10.0,-11.0,8.0,4.0,0.0,0.0,124.67300646873557,-14.377660826930004,0.7134304742861429,0.9783537377492879,-0.2416252561245191,-6.88069888280663,122.19985621117395,-4182816956.6995263,0.8365339899114316,89215.19996684114,1.313624793914657,543713.3187807279,0.0,18.281138703038128,0.0,8.754892621627413,0.0,30.325382630046235
121,2021-10-23 05:11:34.155266,1634958694.2824936,3717803494.2824945,-10.0,-11.0,8.0,5.0,0.0,0.0,188.88818838571305,54.93001608929548,0.6987800457213661,1.898619549286185,-0.3402151293214095,-1.530562184877852,147.51765839306248,52.43453667175742,1.0097992104248446,0.2570116071016385,1.11932507233893,-11.391690538282718,0.0,-5.769663207336376e+177,0.0,8.887945222888634e+172,0.0,-2.544168618557705e+174
122,2021-10-23 05:13:50.980901,1634958831.1127348,3717803631.1127357,-10.0,-11.0,8.0,6.0,0.0,0.0,173.669979100399,-19.847503521071346,0.6952240713563459,1.0406417566388233,-0.3006663598489299,-6.902259872750967,129.28701348212434,-21495.56428083883,1.1099470006737626,2.216191862322029,0.8883489773365563,115.42086752794691,45.948587591694526,70.18551849789696,1.5873719884586597,0.05009716840595607,6.055710074371781,-18.49002432673081
123,2021-10-23 05:16:53.340864,1634959013.4811642,3717803813.481165,-10.0,-11.0,8.0,7.0,0.0,0.0,170.53480622372913,53.58554458981685,0.7403861031787512,1.6807736713293489,-0.242649599702244,-1.9720270335090562,105.13442115862846,-36981.80590588357,1.1643664571145578,1009.7727284920986,0.6808217696693786,1629.6669652118057,0.0,1.0021122519952372e+77,0.0,5.991466726414974e+71,0.0,-6.544933536726781e+73
124,2021-10-23 05:19:10.316224,1634959150.4594595,3717803950.4594603,-10.0,-11.0,8.0,8.0,0.0,0.0,186.83122061324826,0.0,0.6724921926633058,0.0,-0.2830715480086923,0.0,1442.6474740770298,54.61509798965363,0.11124241103773287,0.03590710702816058,-0.21929058643128047,-16.24784461357558,20.116254301446446,26075315.65535341,0.042538909156426774,86020.97317359937,21.550477320304672,-448085.1071938974
125,2021-10-23 05:21:27.040912,1634959287.172488,3717804087.1724887,-10.0,-11.0,8.0,8.0,0.0,0.0,160.9610402704735,45.46323781941239,0.6850358327579295,2.082318592947107,-0.22423125115863804,-1.52548879215215,1285.0560809759938,62.22091811995319,0.1143268922883018,0.10578110971754662,-0.22759370763463055,-17.97322152790272,0.0,289768856223.64044,0.0,36637170.777092375,0.0,-1017864271.5435712
126,2021-10-23 05:23:43.860710,1634959423.9785576,3717804223.9785585,-10.0,-11.0,8.0,8.0,0.0,0.0,183.84302762995233,14.080249547658932,0.6657069236290044,0.10811048169658999,-0.1496296395628185,-10.036850975470632,1754.1210939748617,-39.47307467784402,0.11538841560753854,5.594260110493728,-0.229548570245385,-24.98868422465173,20.531796288634666,17.044212538220158,0.04048574981485675,7.76320685600487,21.523937365769367,26.248620991620488
127,2021-10-23 05:26:00.704917,1634959560.8368888,3717804360.8368893,-10.0,-11.0,8.0,8.0,0.0,0.0,157.78479449203095,47.49628615629032,0.7474128437755012,2.0196315919886025,-0.18855362236547632,-1.2325282648274751,249.4727306204383,-35.2366235914676,0.2542276502078093,5.850209711312573,-0.1892604345848234,-26.070538617813824,0.0,16.93010421081481,0.0,8.90874218610095,0.0,29.774440580239336
128,2021-10-23 05:28:17.360571,1634959697.4891915,3717804497.489192,-10.0,-11.0,8.0,8.0,0.0,0.0,86.71464489578129,0.0,0.6690448026546844,0.0,-0.27517757162633855,0.0,75.12532838548383,73.76,0.48411779609988415,1.0,-0.47398849334602383,-77.54714560615784,0.0,97.54506620848449,0.0,0.5525672145914857,0.0,18.521898962521963
129,2021-10-23 05:30:34.537376,1634959834.6544964,3717804634.654497,-10.0,-11.0,8.0,8.0,0.0,0.0,-22.607932610682134,0.0,1.7045498860804378,0.0,-5.910458064721592,0.0,156.21254968838733,174.05369083294414,0.5397911995197086,0.066354358101163,-0.45401803571560295,-24.586749726484843,0.0,71.68181818181819,0.0,1.0,0.0,85.91007224462363
130,2021-10-23 05:32:50.966100,1634959971.0914836,3717804771.091484,-10.0,-11.0,8.0,8.0,0.0,0.0,173.42166179073777,54.52558419900569,0.6914917213579618,1.8935975009412658,-0.26226811877025247,-1.483761383812588,199.54865736944305,-41804.14744185256,0.5070103333235805,867.0328618510947,-0.570952549464394,1278.3702159841582,0.0,63.81550802139037,0.0,1.0,0.0,-74.02504871711616
131,2021-10-23 05:35:07.833542,1634960107.9594033,3717804907.959404,-10.0,-11.0,8.0,8.0,0.0,0.0,111.8152800606381,0.0,0.7568894167828174,0.0,-0.305807506968303,0.0,94.49998683799919,61.29576045739444,0.6832693156659466,0.03892873435532829,-0.7672824406078054,-27.536714044681336,0.0,0.0,0.0,0.0,0.0,0.0
132,2021-10-23 05:37:24.612817,1634960244.7364824,3717805044.7364836,-10.0,-11.0,8.0,8.0,0.0,0.0,147.53353829329689,0.0,0.7443875190182906,0.0,-0.3081419074189616,0.0,170.6472250284197,-34.09149237307273,0.7663860445101242,5.7957115531227235,-0.9927696014747819,-26.25438368965393,0.0,127.25434049645389,0.0,0.03604435636002095,0.0,23.08418960901936
133,2021-10-23 05:39:41.494924,1634960381.6539865,3717805181.653987,-10.0,-11.0,8.0,8.0,0.0,0.0,175.8465290246099,57.538514780787374,0.6658794716167482,1.770829641778512,-0.2543054368835079,-1.3911417082980893,223.11550239079162,145.06952922647235,0.7301002140458316,1.6692823109915573,-1.1531021280323215,-7.902018167274161,0.0,79.47058823529412,0.0,1.0,0.0,-98.1583685375176
134,2021-10-23 05:41:58.317919,1634960518.4624758,3717805318.4624763,-10.0,-11.0,8.0,8.0,0.0,0.0,202.9138982172679,-16.35614396385412,0.6317488744955356,1.11781823532683,-0.2519381718917543,-6.986444561901268,307.69046949472,-133.42358438540097,0.6251286981935078,0.3174068306558313,-1.355810487203565,-14.661224927914093,0.0,21.10518568938613,0.0,7.777064861803707,0.0,25.01849274481103
135,2021-10-23 05:44:14.892339,1634960655.0123966,3717805455.0123973,-10.0,-11.0,8.0,-8.0,0.0,0.0,170.71598356097851,-20.116861673148176,0.6604597381807503,2.1289786640147477,-0.319533935661468,-8.894458238589245,201.2118302157481,128.5814956602561,0.7326415515285004,1.7655369171413269,2.4346954000996504,-7.99788678850764,322342046.46572965,33.70605756844414,0.24208475641154326,0.01751925882012284,-9.472871156075973,-31.207790962612574
136,2021-10-23 05:46:31.717010,1634960791.839169,3717805591.8391695,-10.0,-11.0,10.0,-7.0,0.0,0.0,98.16880894489451,0.0,0.7131990565115388,0.0,-0.20758252136764524,0.0,108.91554664455683,78.26666666666667,0.7136598018330284,1.0,3.162408882611165,-67.35756596661273,0.0,0.0,0.0,0.0,0.0,0.0
137,2021-10-23 05:48:48.568665,1634960928.706749,3717805728.7067494,-10.0,-11.0,10.0,-6.0,0.0,0.0,-18.799413430430008,31.8466769454722,1.6712247775143618,0.034995910016886414,-5.59156476580306,-9.474415177386213,111.57795262385275,68.3839386202647,0.9146339656751514,2.0207421517940283,2.7968832457563635,-7.719092984582424,0.0,6.706581586171256e+76,0.0,5.112996810244739e+72,0.0,-9.669737324470012e+73
138,2021-10-23 05:51:05.485892,1634961065.6107879,3717805865.6107883,-10.0,-11.0,10.0,-5.0,0.0,0.0,182.44604326156002,0.0,0.6382148429701493,0.0,-0.33567011593949264,0.0,189.11684051336755,-191492.21830154635,0.7709750984596864,27.11867817981308,2.772428798461569,951.2355524094661,0.0,2.842649875475456e+37,0.0,2.1877752598673734e+33,0.0,-2.8982911804027416e+34
139,2021-10-23 05:53:22.223862,1634961202.3504274,3717806002.3504286,-10.0,-11.0,10.0,-4.0,0.0,0.0,145.16022752263322,-17.333255001686563,0.6748802015570129,1.1505381549016762,-0.21183197804450132,-7.109389334532391,156.9819396500255,-49.457531252371695,0.7879683307572837,0.5186937531642225,2.5927606381358235,-14.950481592612446,0.0,63.95187165775401,0.0,1.0,0.0,-123.13498948475312
140,2021-10-23 05:55:39.098888,1634961339.2116182,3717806139.211619,-10.0,-11.0,10.0,-3.0,0.0,0.0,177.55096307826238,51.504853068452455,0.6912110958682224,1.744086466742709,-0.2618728383412523,-1.5324671376954453,191.00695835172635,151.9521225783448,0.8256866250437725,1.7090256251159075,2.5278221792707285,-8.094178993618833,0.0,111.08558120604822,0.0,0.013358329632297439,0.0,-16.136598991097944
141,2021-10-23 05:57:55.919945,1634961476.0507991,3717806276.0508,-10.0,-11.0,10.0,-2.0,0.0,0.0,169.0803775574433,52.42384734571052,0.7434958095312331,1.8087043323905092,-0.23048163574621736,-1.279617367250467,226.41587977118698,89.7039710329275,0.6861008681093382,0.3353209426575859,2.3207442763514443,-11.527891901661885,0.0,70.37433155080214,0.0,1.0,0.0,-80.1012718023256
142,2021-10-23 06:00:12.764908,1634961612.8886242,3717806412.888625,-10.0,-11.0,10.0,-1.0,0.0,0.0,164.53919666198436,45.738588008226365,0.6672680833462349,1.9851161084840787,-0.26558596222981057,-1.4381819658045294,224.8240256249361,-142107.1962898326,0.6563510262197881,7.159007282924385,2.104821059811756,801.8182158508072,0.0,-16.39505468570421,0.0,5.447231763259964,0.0,-25.51393860368063
143,2021-10-23 06:02:29.323359,1634961749.455577,3717806549.455578,-10.0,-11.0,10.0,0.0,0.0,0.0,153.4690760848403,-17.663502041414603,0.7421464761993637,0.7624310549004912,-0.1713581964662645,-7.388371898645958,221.96590454011002,-37026.29084611673,0.6410465219212456,1051.7313064459033,2.0056041739721664,1652.8313306834366,0.0,-1.0565794844494472e+81,0.0,2.305078274829285e+76,0.0,-7.71659874088695e+77
144,2021-10-23 06:04:46.167423,1634961886.296384,3717806686.296385,-10.0,-11.0,10.0,1.0,0.0,0.0,155.39434200706253,45.693737968744486,0.7204946973895386,1.9741647160406448,-0.24243586014763754,-1.5928857601392072,257.85635451236874,176.01033397584814,0.5715430082601186,0.04270586352152872,1.949209930980391,-24.31668843204707,0.0,-1415.1867055617215,0.0,0.23853434285866815,0.0,-38.45674861217121
145,2021-10-23 06:07:03.017926,1634962023.1534364,3717806823.153437,-10.0,-11.0,10.0,2.0,0.0,0.0,153.65829517285368,47.019263565308904,0.7489518872599029,1.7460913533774074,-0.3064935209414198,-1.4028072316134026,268.298540947816,-40.07431867644166,0.5104695881023421,5.955314885154623,1.8740147044583098,-27.002121568390475,0.0,73.49197860962568,0.0,1.0,0.0,-112.40063665302398
146,2021-10-23 06:09:19.891456,1634962160.0102441,3717806960.010245,-10.0,-11.0,10.0,3.0,0.0,0.0,174.87444401901513,12.801322385771073,0.7194226510700132,0.004176279933126192,-0.30635431725729634,-7.708928819341404,317.97792787659284,77.08403678119838,0.47898397140842414,0.15457870577823107,1.831044892816627,-21.50552161292567,0.0,-19.43818439221541,0.0,5.363113054912456,0.0,-25.441377402288236
147,2021-10-23 06:11:36.830597,1634962296.96085,3717807096.9608507,-10.0,-11.0,10.0,4.0,0.0,0.0,173.63588931329193,53.613183822246654,0.6852415918933802,1.8295772660904486,-0.3415353113609522,-1.2797907968420044,311.47933180773896,-66890.13631970738,0.45351179393459684,165.7134160963485,1.7926100881833855,166.93333500484218,0.0,49.04301682567141,0.0,0.012018383468995822,0.0,-17.888751040431927
148,2021-10-23 06:13:53.620981,1634962433.7340956,3717807233.734096,-10.0,-11.0,10.0,5.0,0.0,0.0,164.68798018448925,78.46258095973246,0.6458609575836107,0.07143097327868,-0.4016066066438497,-9.506544213438188,302.61565278141273,-31.907787743109477,0.3951923153483297,5.764294590401264,1.7689718572412851,-25.761866287236657,0.0,66.524064171123,0.0,1.0,0.0,37.007456069643744
149,2021-10-23 06:16:10.201499,1634962570.3229542,3717807370.322955,-10.0,-11.0,10.0,6.0,0.0,0.0,151.48496599416038,-29.736177698399096,0.7401552751053108,8.105429456635365,-0.25207531295293817,-21.647001577547996,325.76695821749064,56.70561603154435,0.3570524382267779,0.07173990691527188,1.7879383866336729,-15.281143317945089,0.0,71.90641711229947,0.0,1.0,0.0,-257.0182544209916
150,2021-10-23 06:18:27.010249,1634962707.131313,3717807507.1313133,-10.0,-11.0,10.0,7.0,0.0,0.0,188.51160081644264,0.0,0.6170642027164579,0.0,-0.2216777797786972,0.0,304.428746272269,-37.62677773085524,0.3402729352720144,6.1276142705062195,1.7863595220090083,-27.008659222651996,0.0,-3445.419772674626,0.0,1.2268422207771215,0.0,-33.39551126055145
151,2021-10-23 06:20:43.781289,1634962843.9019234,3717807643.901924,-10.0,-11.0,10.0,7.0,0.0,0.0,-19.602763868163713,0.0,1.8391193755493962,0.0,-6.11287064742603,0.0,186.573297940724,48.71572794317128,0.32626023134585896,0.03715623670479639,1.8014422782430581,-28.393570715702083,0.0,77.69789301100839,0.0,0.5974761086795477,0.0,15.290227524061834
152,2021-10-23 06:23:00.614503,1634962980.7379136,3717807780.7379146,-10.0,-11.0,10.0,7.0,0.0,0.0,-19.86388979800744,0.0,1.698391387376057,0.0,-5.75015630027516,0.0,4002.463146333227,77.5,0.1655787183772624,1.0,1.9467474231974482,-98.93690313778981,0.0,203831484346846.4,0.0,139383200059.29175,0.0,-1167654253668.173
153,2021-10-23 06:25:17.564284,1634963117.689893,3717807917.6898937,-10.0,-11.0,10.0,7.0,0.0,0.0,-13.038950986125721,0.0,1.732732821386069,0.0,-5.778943648365848,0.0,43.37974917994822,-11158961947799.598,0.9727381849576566,134373615.74402,1.2103595972832832,-27268141197.261032,0.0,0.0,0.0,0.0,0.0,0.0
154,2021-10-23 06:27:34.436918,1634963254.5589082,3717808054.558909,-10.0,-11.0,10.0,7.0,0.0,0.0,176.62193679797113,-19.52376927696509,0.673427103077704,0.9343369444291872,-0.30826485237353035,-7.0981722658965,98.37388431360601,-43073.144859241474,1.1884172075888153,1028.9031255958741,0.8241547142727774,1719.5149432698404,0.0,22.418415119991813,0.0,0.03847841625242754,0.0,-27.27252828728107
155,2021-10-23 06:29:50.915307,1634963391.0556118,3717808191.0556126,-10.0,-11.0,10.0,7.0,0.0,0.0,213.05341358693954,56.188811718460634,0.662856136221265,1.8839166233301334,-0.2871152080738938,-1.8707851658536978,131.29319497489817,163.0295785768065,1.1194598738950474,1.6376386720618727,0.4725352891056307,-8.061698567600446,0.0,88.32359694212124,0.0,1.2528407049597745,0.0,-8.716607818419176
156,2021-10-23 06:34:24.695802,1634963664.82105,3717808464.8210506,-10.0,-11.0,10.0,7.0,0.0,0.0,169.97311500700152,-26.162669855126964,0.6561379068507961,2.0244423928233863,-0.31739536124583506,-8.91041494384205,2235.089272017083,-132663.65659119008,0.10844368437871135,17.066530926886475,-0.2238770552653955,568.4804179915762,0.0,81.57219251336899,0.0,1.0,0.0,-106.03005181347162
157,2021-10-23 06:36:41.427891,1634963801.5528464,3717808601.552847,-10.0,-11.0,10.0,7.0,0.0,0.0,158.00993311055214,0.0,0.6933501657579361,0.0,-0.2523388608377148,0.0,2160.7791341735347,120.09968014507751,0.10696323219767542,1.8403480204543003,-0.22747164050329846,-7.891403442458148,0.0,78.35294117647058,0.0,1.0,0.0,-75.93669131238447
158,2021-10-23 06:38:58.346638,1634963938.4643738,3717808738.4643745,-10.0,-11.0,10.0,7.0,0.0,0.0,168.05733322452133,-16.501671845230813,0.6356634290522597,1.1769286480193109,-0.2801596927350085,-7.016226963651639,1024.6801008441867,-39.95702826407503,0.1239601313800984,6.112878689402129,-0.22947109118160086,-26.72010049294049,0.0,6.237902085117681e+30,0.0,2.7317220162861753e+26,0.0,-4.3284198401629237e+27
159,2021-10-23 06:41:14.947119,1634964075.077455,3717808875.0774565,-10.0,-11.0,10.0,7.0,0.0,0.0,-24.625121716551376,32.206928414724935,1.6189564483674135,2.068412433957665,-5.68402358945702,-1.3047252841915125,164.2463265864411,50.802790936345,0.27553149407027616,0.08283456620033175,-0.18431493582961028,-27.62324353179793,0.0,-2.0204711822777924e+132,0.0,1.372842856165366e+127,0.0,1.0059640896328682e+129
160,2021-10-23 06:43:31.981288,1634964212.110469,3717809012.11047,-10.0,-11.0,10.0,7.0,0.0,0.0,182.79857689616873,56.35057817337221,0.7096667121441314,1.7362548117499053,-0.2455603378559664,-1.4257116026710224,205.04788626445418,92.4076702766391,0.4230203274067535,0.35040055374880424,-0.30888394436845745,-11.524994475758076,0.0,4.858612043424203e+98,0.0,1.1196579200363363e+94,0.0,-2.3984932523061128e+95
161,2021-10-23 06:45:48.539931,1634964348.6698954,3717809148.669896,-10.0,-11.0,10.0,7.0,0.0,0.0,180.16566580786179,47.770221552605854,0.7244581031967333,1.9356214269023064,-0.2678457394483363,-2.016894513698877,169.27688590079444,148.06372694074616,0.5541993611608239,1.6933509275596639,-0.4907055960026595,-8.059403441293009,0.0,2.9839959307672342e+32,0.0,1.6188847041220994e+28,0.0,-5.496571005571019e+29
